<?xml version="1.0" encoding="UTF-8" standalone="no"?>
<!-- Created with Inkscape (http://www.inkscape.org/) -->

<svg
   width="297mm"
   height="210mm"
   viewBox="0 0 297 210"
   version="1.1"
   id="svg1"
   inkscape:version="1.3.2 (091e20ef0f, 2023-11-25)"
   sodipodi:docname="EsperantoEstasVivantaLingvo.RU.svg"
   inkscape:export-filename="EsperantoEstasVivantaLingvo.EL.png"
   inkscape:export-xdpi="96"
   inkscape:export-ydpi="96"
   xmlns:inkscape="http://www.inkscape.org/namespaces/inkscape"
   xmlns:sodipodi="http://sodipodi.sourceforge.net/DTD/sodipodi-0.dtd"
   xmlns:xlink="http://www.w3.org/1999/xlink"
   xmlns="http://www.w3.org/2000/svg"
   xmlns:svg="http://www.w3.org/2000/svg"
   xmlns:rdf="http://www.w3.org/1999/02/22-rdf-syntax-ns#"
   xmlns:cc="http://creativecommons.org/ns#">
  <sodipodi:namedview
     id="namedview1"
     pagecolor="#ffffff"
     bordercolor="#000000"
     borderopacity="0.25"
     inkscape:showpageshadow="2"
     inkscape:pageopacity="0.0"
     inkscape:pagecheckerboard="0"
     inkscape:deskcolor="#d1d1d1"
     inkscape:document-units="mm"
     inkscape:zoom="0.83678533"
     inkscape:cx="675.80057"
     inkscape:cy="382.41588"
     inkscape:window-width="1920"
     inkscape:window-height="1052"
     inkscape:window-x="0"
     inkscape:window-y="0"
     inkscape:window-maximized="1"
     inkscape:current-layer="layer1"
     showguides="false" />
  <defs
     id="defs1">
    <linearGradient
       id="swatch8"
       inkscape:swatch="solid">
      <stop
         style="stop-color:#000000;stop-opacity:1;"
         offset="0"
         id="stop8" />
    </linearGradient>
    <linearGradient
       inkscape:collect="always"
       xlink:href="#swatch8"
       id="linearGradient8"
       x1="171.13302"
       y1="181.39798"
       x2="198.64154"
       y2="181.39798"
       gradientUnits="userSpaceOnUse" />
  </defs>
  <g
     inkscape:label="Tavolo 1"
     inkscape:groupmode="layer"
     id="layer1">
    <rect
       style="fill:#009900;fill-opacity:1;stroke-width:0.178836;-inkscape-stroke:none"
       id="rect3"
       width="296.64401"
       height="208.92671"
       x="0.83831114"
       y="0.64976108"
       ry="9.1208162" />
    <text
       xml:space="preserve"
       style="font-size:14.1111px;display:inline;fill:#000000;stroke-width:0.181717;-inkscape-stroke:none"
       x="108.26476"
       y="56.142506"
       id="text3"><tspan
         sodipodi:role="line"
         id="tspan3"
         style="font-style:normal;font-variant:normal;font-weight:normal;font-stretch:normal;font-size:14.1111px;line-height:normal;font-family:'Liberation Sans';-inkscape-font-specification:'Liberation Sans';font-variant-ligatures:normal;font-variant-position:normal;font-variant-caps:normal;font-variant-numeric:normal;font-variant-alternates:normal;font-variant-east-asian:normal;font-feature-settings:normal;font-variation-settings:normal;text-indent:0;text-align:start;text-decoration-line:none;text-decoration-style:solid;text-decoration-color:#000000;letter-spacing:normal;word-spacing:normal;text-transform:none;writing-mode:lr-tb;direction:ltr;text-orientation:mixed;dominant-baseline:auto;baseline-shift:baseline;white-space:normal;opacity:1;vector-effect:none;fill:#000000;fill-opacity:1;stroke-width:0.181717;stroke-linecap:butt;stroke-linejoin:miter;stroke-miterlimit:4;stroke-dasharray:none;stroke-dashoffset:0;stroke-opacity:1;-inkscape-stroke:none;stop-color:#000000;stop-opacity:1"
         x="108.26476"
         y="56.142506">А вы знали?</tspan></text>
    <text
       xml:space="preserve"
       style="font-style:normal;font-variant:normal;font-weight:normal;font-stretch:normal;font-size:25.4px;font-family:sans-serif;-inkscape-font-specification:sans-serif;fill:#f9f9f9;fill-opacity:1;stroke-width:0.181717;-inkscape-stroke:none"
       x="151.17891"
       y="98.049171"
       id="text4"><tspan
         sodipodi:role="line"
         id="tspan4"
         style="font-style:normal;font-variant:normal;font-weight:bold;font-stretch:normal;font-size:25.4px;font-family:'Liberation Sans';-inkscape-font-specification:'Liberation Sans Bold';text-align:center;direction:ltr;text-anchor:middle;stroke-width:0.181717"
         x="151.17891"
         y="98.049171">ESPERANTO ESTAS </tspan><tspan
         sodipodi:role="line"
         style="font-style:normal;font-variant:normal;font-weight:bold;font-stretch:normal;font-size:25.4px;font-family:'Liberation Sans';-inkscape-font-specification:'Liberation Sans Bold';text-align:center;direction:ltr;text-anchor:middle;stroke-width:0.181717"
         x="151.17891"
         y="130.20529"
         id="tspan7">VIVANTA LINGVO</tspan></text>
    <text
       xml:space="preserve"
       style="font-size:17.6389px;fill:#f9f9f9;stroke-width:0.181717;-inkscape-stroke:none"
       x="97.176659"
       y="36.948395"
       id="text5"><tspan
         sodipodi:role="line"
         style="font-style:normal;font-variant:normal;font-weight:bold;font-stretch:normal;font-size:17.6389px;font-family:'Liberation Sans';-inkscape-font-specification:'Liberation Sans';fill:#f9f9f9;stroke-width:0.181717"
         x="97.176659"
         y="36.948395"
         id="tspan5">Ĉu vi scias?</tspan></text>
    <text
       xml:space="preserve"
       style="font-style:normal;font-variant:normal;font-weight:normal;font-stretch:normal;font-size:11.2889px;font-family:sans-serif;-inkscape-font-specification:sans-serif;text-align:center;text-anchor:middle;fill:#f9f9f9;fill-opacity:1;stroke-width:0.181717;-inkscape-stroke:none"
       x="148.24368"
       y="162.04306"
       id="text6"><tspan
         sodipodi:role="line"
         style="font-style:normal;font-variant:normal;font-weight:normal;font-stretch:normal;font-size:11.2889px;font-family:'Liberation Sans';-inkscape-font-specification:'Liberation Sans';text-align:center;text-anchor:middle;fill:#000000;stroke-width:0.181717"
         x="148.24368"
         y="162.04306"
         id="tspan2">ЭСПЕРАНТО - ЖИВОЙ И ПРОЦВЕТАЮЩИЙ ЯЗЫК</tspan></text>
    <text
       xml:space="preserve"
       style="font-style:normal;font-variant:normal;font-weight:normal;font-stretch:normal;font-size:7.7611px;font-family:sans-serif;-inkscape-font-specification:sans-serif;text-align:center;direction:ltr;text-anchor:middle;fill:#000000;fill-opacity:1;stroke:url(#linearGradient8);stroke-width:0.181717;-inkscape-stroke:none"
       x="190.73463"
       y="183.53911"
       id="text8"><tspan
         sodipodi:role="line"
         id="tspan8"
         style="stroke:url(#linearGradient8);stroke-width:0.181717;stroke-opacity:1"
         x="190.73463"
         y="183.53911" /></text>
    <g
       id="g12"
       transform="translate(13.92777,6.8627017)">
      <rect
         style="fill:#ffffff;fill-opacity:1;stroke:#000000;stroke-width:0.54;stroke-dasharray:none;stroke-opacity:1"
         id="rect8"
         width="32.150948"
         height="11.029278"
         x="238.16037"
         y="182.45404"
         ry="5.5146389" />
      <path
         id="text9"
         style="font-style:normal;font-variant:normal;font-weight:normal;font-stretch:normal;font-size:7.7611px;font-family:sans-serif;-inkscape-font-specification:sans-serif;text-align:center;direction:ltr;text-anchor:middle;white-space:pre;inline-size:42.7212;fill:#009900;fill-opacity:1;stroke:#009900;stroke-width:0.181717;stroke-opacity:1;-inkscape-stroke:none"
         d="m 244.55289,185.52333 c -0.70073,0 -1.25264,0.21497 -1.65571,0.64492 -0.40308,0.42788 -0.60462,1.01389 -0.60462,1.75803 0,0.74207 0.20154,1.32808 0.60462,1.75803 0.40307,0.42788 0.95498,0.64182 1.65571,0.64182 0.27285,0 0.53123,-0.0372 0.77515,-0.11162 0.24598,-0.0744 0.47852,-0.18603 0.69763,-0.33486 v -0.65422 c -0.21084,0.19637 -0.43615,0.34313 -0.67593,0.44028 -0.23771,0.0971 -0.49093,0.14573 -0.75964,0.14573 -0.52917,0 -0.93431,-0.16123 -1.21543,-0.4837 -0.28112,-0.32452 -0.42168,-0.79168 -0.42168,-1.40146 0,-0.61185 0.14056,-1.079 0.42168,-1.40146 0.28112,-0.32453 0.68626,-0.4868 1.21543,-0.4868 0.26871,0 0.52193,0.0486 0.75964,0.14573 0.23978,0.0971 0.46509,0.24391 0.67593,0.44028 v -0.66042 c -0.21498,-0.14676 -0.44545,-0.25632 -0.69143,-0.32866 -0.24392,-0.0744 -0.50437,-0.11162 -0.78135,-0.11162 z m 4.43384,0 c -0.70073,0 -1.25264,0.21497 -1.65572,0.64492 -0.40307,0.42788 -0.60461,1.01389 -0.60461,1.75803 0,0.74207 0.20154,1.32808 0.60461,1.75803 0.40308,0.42788 0.95499,0.64182 1.65572,0.64182 0.27285,0 0.53123,-0.0372 0.77514,-0.11162 0.24598,-0.0744 0.47853,-0.18603 0.69764,-0.33486 v -0.65422 c -0.21084,0.19637 -0.43615,0.34313 -0.67593,0.44028 -0.23771,0.0971 -0.49093,0.14573 -0.75965,0.14573 -0.52916,0 -0.93431,-0.16123 -1.21543,-0.4837 -0.28111,-0.32452 -0.42167,-0.79168 -0.42167,-1.40146 0,-0.61185 0.14056,-1.079 0.42167,-1.40146 0.28112,-0.32453 0.68627,-0.4868 1.21543,-0.4868 0.26872,0 0.52194,0.0486 0.75965,0.14573 0.23978,0.0971 0.46509,0.24391 0.67593,0.44028 v -0.66042 c -0.21498,-0.14676 -0.44546,-0.25632 -0.69143,-0.32866 -0.24392,-0.0744 -0.50437,-0.11162 -0.78135,-0.11162 z m 3.83542,0 c -0.51883,0 -0.9157,0.20567 -1.19062,0.61701 -0.27285,0.40928 -0.40928,1.00459 -0.40928,1.78594 0,0.77928 0.13643,1.37459 0.40928,1.78594 0.27492,0.40927 0.67179,0.61391 1.19062,0.61391 0.51883,0 0.91468,-0.20464 1.18753,-0.61391 0.27491,-0.41135 0.41237,-1.00666 0.41237,-1.78594 0,-0.78135 -0.13746,-1.37666 -0.41237,-1.78594 -0.27285,-0.41134 -0.6687,-0.61701 -1.18753,-0.61701 z m 9.05371,0.0868 c -0.17983,0 -0.35656,0.0465 -0.5302,0.13953 -0.41134,0.25631 -0.61701,0.60255 -0.61701,1.03869 0,0.45062 0.17363,0.88781 0.52089,1.31155 l 1.74253,2.13631 h 0.0186 l 1.64021,-1.96888 c 0.42995,-0.46922 0.64492,-0.96221 0.64492,-1.47898 0,-0.15089 -0.0331,-0.31212 -0.0992,-0.48369 -0.26045,-0.46302 -0.60668,-0.69453 -1.0387,-0.69453 -0.27905,0 -0.5302,0.11162 -0.75344,0.33487 -0.19017,0.22117 -0.32143,0.49919 -0.39377,0.83405 h -0.009 c -0.004,-0.10128 -0.0496,-0.24804 -0.13643,-0.44028 -0.23978,-0.48576 -0.56947,-0.72864 -0.98909,-0.72864 z m -9.05371,0.40928 c 0.32453,0 0.56741,0.15916 0.72864,0.47749 0.1633,0.31626 0.24495,0.79272 0.24495,1.42937 0,0.63459 -0.0816,1.11104 -0.24495,1.42937 -0.16123,0.31626 -0.40411,0.47439 -0.72864,0.47439 -0.32246,0 -0.56534,-0.15813 -0.72864,-0.47439 -0.16123,-0.31833 -0.24184,-0.79478 -0.24184,-1.42937 0,-0.63665 0.0806,-1.11311 0.24184,-1.42937 0.1633,-0.31833 0.40618,-0.47749 0.72864,-0.47749 z m 4.42144,0.23564 v 1.72703 h -1.72703 v 0.5271 h 1.72703 v 1.72703 h 0.5209 v -1.72703 h 1.72702 v -0.5271 h -1.72702 v -1.72703 z" />
    </g>
  </g>
  <metadata
     id="metadata6">
    <rdf:RDF>
      <cc:License
         rdf:about="http://creativecommons.org/publicdomain/zero/1.0/">
        <cc:permits
           rdf:resource="http://creativecommons.org/ns#Reproduction" />
        <cc:permits
           rdf:resource="http://creativecommons.org/ns#Distribution" />
        <cc:permits
           rdf:resource="http://creativecommons.org/ns#DerivativeWorks" />
      </cc:License>
      <cc:Work
         rdf:about="">
        <cc:license
           rdf:resource="http://creativecommons.org/publicdomain/zero/1.0/" />
      </cc:Work>
    </rdf:RDF>
  </metadata>
</svg>
