<?xml version="1.0" encoding="UTF-8" standalone="no"?>
<svg
   xmlns:dc="http://purl.org/dc/elements/1.1/"
   xmlns:cc="http://creativecommons.org/ns#"
   xmlns:rdf="http://www.w3.org/1999/02/22-rdf-syntax-ns#"
   xmlns:svg="http://www.w3.org/2000/svg"
   xmlns="http://www.w3.org/2000/svg"
   xmlns:sodipodi="http://sodipodi.sourceforge.net/DTD/sodipodi-0.dtd"
   xmlns:inkscape="http://www.inkscape.org/namespaces/inkscape"
   viewBox="0 0 903.84919 1101.5444"
   version="1.1"
   id="svg152"
   sodipodi:docname="Esperanto.svg"
   inkscape:version="0.92.3 (2405546, 2018-03-11)"
   width="903.84918"
   height="1101.5444">
  <metadata
     id="metadata158">
    <rdf:RDF>
      <cc:Work
         rdf:about="">
        <dc:format>image/svg+xml</dc:format>
        <dc:type
           rdf:resource="http://purl.org/dc/dcmitype/StillImage" />
        <dc:title></dc:title>
      </cc:Work>
    </rdf:RDF>
  </metadata>
  <defs
     id="defs156" />
  <sodipodi:namedview
     pagecolor="#ffffff"
     bordercolor="#666666"
     borderopacity="1"
     objecttolerance="10"
     gridtolerance="10"
     guidetolerance="10"
     inkscape:pageopacity="0"
     inkscape:pageshadow="2"
     inkscape:window-width="1366"
     inkscape:window-height="743"
     id="namedview154"
     showgrid="false"
     showguides="true"
     inkscape:guide-bbox="true"
     inkscape:zoom="0.38363512"
     inkscape:cx="308.77355"
     inkscape:cy="691.02852"
     inkscape:window-x="0"
     inkscape:window-y="0"
     inkscape:window-maximized="1"
     inkscape:current-layer="svg152"
     fit-margin-top="0"
     fit-margin-left="0"
     fit-margin-right="0"
     fit-margin-bottom="0" />
  <g
     id="g6482"
     transform="translate(20.515791,-0.96027949)">
    <path
       style="fill:#008000;stroke:#000000;stroke-width:3.08800006;stroke-miterlimit:4;stroke-dasharray:none"
       inkscape:connector-curvature="0"
       id="path136"
       d="m 91.244125,183.53886 c 4.612184,-15.27343 12.509465,-28.3316 19.435755,-42.44906 6.83459,-13.93574 18.88276,-24.23827 31.2392,-32.67676 11.89599,-8.12786 25.08868,-18.476946 39.76486,-18.751167 15.16983,-0.28444 29.32648,3.635592 42.93492,10.011007 9.1487,4.28817 16.64375,8.47042 24.85184,14.50089 6.94795,5.09741 12.33169,13.11129 17.37452,20.17181 5.21272,7.28312 8.11274,16.57679 11.19841,25.02811 2.56453,7.03456 5.2386,17.07302 5.53282,24.59664 -64.11265,-0.14575 -128.22249,-0.28378 -192.335138,-0.42953" />
    <path
       style="fill:#00aa00;stroke:#000000;stroke-width:3.08800006;stroke-miterlimit:4;stroke-dasharray:none"
       inkscape:connector-curvature="0"
       id="path138"
       d="m 205.67535,35.093085 c -4.5534,0.392712 -8.64943,2.214536 -12.90101,3.643946 -4.20939,1.408882 -7.31221,3.213369 -10.55934,6.939075 l -2.82323,4.661758 c -8.05957,5.633615 -13.34262,15.219714 -12.21017,26.241966 1.66631,16.21992 14.62611,28.49422 30.28846,26.68358 0.15289,-0.0177 0.303,-0.0454 0.45588,-0.0631 -0.27375,-0.22627 -0.5462,-0.44577 -0.81268,-0.67288 15.29922,0.54469 26.36654,-15.83887 24.77702,-31.310128 -0.56738,-5.522912 -2.651,-10.615844 -5.72859,-14.845233 2.04936,0.121597 4.13034,0.05983 6.3626,-0.546712 -2.34297,-1.29221 -4.67379,-2.597819 -7.01687,-3.890119 3.5872,-0.938349 7.17495,-1.865986 10.76327,-2.796637 -3.60829,-0.770802 -8.05002,-0.352876 -11.75422,-1.198545 -1.97733,-0.45069 -4.3731,0.647746 -6.40255,0.904183 -0.5476,-0.336943 -1.13525,-0.587859 -1.70468,-0.883147 3.62263,-1.846262 7.26045,-3.683931 10.88224,-5.530074 0.52465,-0.27167 -0.49156,5.97e-4 -0.57482,-0.02103 -4.3776,-2.237155 -11.17619,1.292359 -15.63929,1.808337 -1.36732,0.158078 -3.01141,0.62104 -4.59869,1.009306 -1.33412,-0.07262 -2.67066,-0.158741 -4.04371,0 -1.26763,0.146546 -2.48454,0.486138 -3.70674,0.79903 3.99731,-3.713173 14.65424,-9.363797 16.94754,-10.934227 z" />
    <path
       style="fill:#00aa00;fill-rule:evenodd;stroke:#000000;stroke-width:3;stroke-miterlimit:4;stroke-dasharray:none"
       inkscape:connector-curvature="0"
       id="path142"
       d="m 182.85492,149.86846 14.02923,-12.72517 15.83703,13.60751 15.39598,-13.99244 13.7277,14.08046 13.45429,-13.18379 12.44702,14.56743 5.24113,-5.7473 c 3.93176,9.64906 5.7646,15.15227 7.7617,25.19043 l -94.41237,-2.94332 c -6.13279,-1.74824 -82.87698,13.48278 -94.252034,15.67565 1.7979,-10.62121 6.069226,-20.11809 11.754224,-30.7402 l 14.5811,-14.99562 13.16767,12.36889 12.81437,-14.99563 12.51143,14.63338 14.98025,-13.12084 c 3.32925,4.24163 11.23019,13.16082 10.95987,12.31996 z" />
    <path
       style="fill:#008000;fill-rule:evenodd;stroke:#000000;stroke-width:3;stroke-miterlimit:4;stroke-dasharray:none"
       inkscape:connector-curvature="0"
       id="path144"
       d="m 183.48781,165.88308 14.02923,-12.72517 15.83703,13.60751 15.39598,-13.99243 13.72769,14.08046 13.45429,-13.1838 12.44702,14.56744 5.24113,-5.74731 c 6.75865,8.8995 9.29807,13.65287 11.29517,23.69103 l -97.94527,-1.44394 c -6.1328,-1.74824 -83.93461,-3.76062 -95.31247,-1.56775 0.898949,-5.31076 4.014459,-12.23372 7.246391,-18.74341 l 7.334719,5.99706 12.81437,-15.74518 13.16766,12.36889 12.81437,-14.99563 12.51144,14.63338 14.98024,-13.12083 c 3.32926,4.24162 11.23019,13.16082 10.95988,12.31995 z" />
    <path
       d="m 86.794241,183.27031 c -7.247236,11.5686 -16.45529,26.49768 -13.427568,41.41065 1.449756,7.15541 7.998821,12.31458 14.043857,14.78884 1.369,0.56077 6.922355,2.55258 7.901217,2.11117 4.28899,-1.92605 8.271943,-3.45715 12.767403,-4.73516 29.43618,-8.35046 59.73308,-7.6949 89.89497,-8.27467 15.83872,-0.29926 31.67519,0.75371 47.51419,1.31417 8.82832,0.308 17.64033,0.6726 26.46106,1.12216 6.97692,0.35792 14.48941,-0.59654 21.37744,0.40468 13.82193,2.01285 3.11605,-36.57673 0.84903,-43.08463 -1.19104,-3.41836 -2.42103,-6.7854 -4.04034,-9.99788 -1.77883,-3.54577 -5.31455,-4.11391 -8.97515,-5.75416 -6.87285,-3.07402 -14.34174,-5.7121 -21.71977,-6.96146 -29.61339,-4.99356 -60.31253,-6.27456 -90.18751,-2.82089 -13.95019,1.61277 -28.01571,1.38659 -41.71977,5.11232 -7.05991,1.91818 -13.881,4.15271 -20.67003,6.98533 -5.58795,2.33416 -16.781291,4.32428 -20.683518,9.44108"
       id="path148"
       inkscape:connector-curvature="0"
       style="fill:#008000;stroke:#000000;stroke-width:2.78800011;stroke-miterlimit:4;stroke-dasharray:none" />
  </g>
  <g
     id="g6193"
     transform="translate(3.7761801,5.4591583)">
    <path
       id="path473"
       d="m 334.72411,909.12184 c -19.9484,-17.76727 -49.00383,-16.29293 -66.8312,-18.57948 11.92452,12.62203 52.4278,29.94663 52.888,38.74904 6.47431,-5.14318 13.56371,-2.88002 21.27093,6.79062 0.0496,-9.09296 -2.58028,-17.29163 -7.32739,-26.95983 z"
       style="fill:#fefefe;stroke:#373435;stroke-width:1.41732967"
       inkscape:connector-curvature="0" />
    <path
       id="path475"
       d="m 193.04265,876.49637 c 0.0182,2.1501 0.0316,5.08068 0.0302,9.04625 -102.8912,0.49784 -138.21969,67.52836 0.0914,64.35165 0.002,7.54856 -0.0148,4.20356 -3.4e-4,15.73452 -64.01165,0.88691 -102.60272,12.94691 -95.01638,32.21634 5.29635,13.87897 36.11838,33.78927 94.09256,33.58357 -0.002,4.1651 -0.01,7.1536 -0.0189,9.2986 -85.54457,-0.8649 -154.40544,-37.3032 -154.40544,-82.11372 0,-44.9548 69.30389,-81.47843 155.22628,-82.11721 z"
       style="fill:#008000;stroke-width:3.43428564"
       inkscape:connector-curvature="0" />
    <path
       id="path477"
       d="m 198.146,876.49991 c -0.0182,2.1501 -0.0312,5.08068 -0.0302,9.04591 102.8912,0.49821 137.69768,67.52492 -0.61405,64.34821 -0.003,7.54856 0.0151,4.20356 3.4e-4,15.73452 64.01165,0.88691 102.60272,12.94691 95.01638,32.21634 -5.29635,13.87901 -37.06281,33.76621 -95.03355,33.56091 0.002,4.1843 0.01,7.1804 0.0189,9.3278 85.97734,-0.6062 155.34648,-37.1452 155.34648,-82.12061 0,-44.86207 -69.02228,-81.33075 -154.70427,-82.11377 z"
       style="fill:#008000;stroke-width:3.43428564"
       inkscape:connector-curvature="0" />
    <path
       id="path479"
       d="m 195.33332,876.48184 c 86.98015,0 157.51695,36.7812 157.51695,82.13438 0,45.35318 -70.5368,82.13438 -157.51695,82.13438 -86.98015,0 -157.51695,-36.7812 -157.51695,-82.13438 0,-45.35318 70.5368,-82.13438 157.51695,-82.13438 z"
       style="fill:none;stroke:#373435;stroke-width:1.77167928"
       inkscape:connector-curvature="0" />
    <path
       id="path481"
       d="m 195.65614,876.48184 -0.6453,164.26876"
       style="fill:none;stroke:#373435;stroke-width:1.77167928"
       inkscape:connector-curvature="0" />
    <path
       id="path483"
       d="m 137.69227,882.16236 c -66.95484,47.38627 -79.13968,98.81126 7.17044,154.17194"
       style="fill:none;stroke:#373435;stroke-width:1.77167928"
       inkscape:connector-curvature="0" />
    <path
       id="path485"
       d="m 182.34141,876.76352 c -68.32854,51.84742 -89.81687,108.0495 0.15946,163.71588"
       style="fill:none;stroke:#373435;stroke-width:1.77167928"
       inkscape:connector-curvature="0" />
    <path
       id="path487"
       d="m 209.73328,876.82057 c 59.32385,53.80495 79.54836,109.92804 -1.96867,163.67803"
       style="fill:none;stroke:#373435;stroke-width:1.77167928"
       inkscape:connector-curvature="0" />
    <path
       id="path489"
       d="m 247.01245,881.00638 c 76.7975,58.16993 72.56302,112.81971 9.19873,153.37522"
       style="fill:none;stroke:#373435;stroke-width:1.77167928"
       inkscape:connector-curvature="0" />
    <path
       id="path491"
       d="m 307.4284,900.92317 c 33.53512,30.26362 37.21049,79.39038 7.85971,110.91373"
       style="fill:none;stroke:#373435;stroke-width:1.77167928"
       inkscape:connector-curvature="0" />
    <path
       id="path493"
       d="m 80.54232,902.38206 c -31.31897,31.02465 -41.4793,71.0485 -0.3788,111.91304"
       style="fill:none;stroke:#373435;stroke-width:1.77167928"
       inkscape:connector-curvature="0" />
    <path
       id="path495"
       d="m 38.2619,958.28674 314.4535,-6.91116"
       style="fill:none;stroke:#373435;stroke-width:1.77167928"
       inkscape:connector-curvature="0" />
    <path
       id="path497"
       d="m 53.71608,922.62168 c 99.44318,-27.79608 193.82765,-31.388 274.92831,-7.33048"
       style="fill:none;stroke:#373435;stroke-width:1.77167928"
       inkscape:connector-curvature="0" />
    <path
       id="path499"
       d="m 51.38386,992.00798 c 110.3539,32.97462 210.75868,30.28942 296.09381,-12.10654"
       style="fill:none;stroke:#373435;stroke-width:1.77167928"
       inkscape:connector-curvature="0" />
    <path
       id="path501"
       d="m 230.15011,954.06943 c 44.64228,8.75846 137.47102,31.00988 105.46348,-43.0419 -1.43365,-3.31728 -0.4114,-1.33868 0.85077,0.5035 23.08355,33.68004 37.61573,68.39036 -1.226,82.2477 -32.60443,11.19847 -71.99637,12.54577 -119.56466,5.24691 l -8.54485,-28.18415 23.02071,-16.77134 z"
       style="fill:#fefefe;stroke:#373435;stroke-width:1.41732967"
       inkscape:connector-curvature="0" />
    <path
       id="path503"
       d="m 187.65185,923.42736 9.57548,28.98709 30.40029,0.057 -24.6094,18.06434 9.33988,28.93008 -24.78489,-17.82292 -24.62761,17.82292 9.29112,-29.07981 -24.56064,-17.91461 30.52702,-0.14973 z"
       style="fill:#00afef;stroke:#373435;stroke-width:1.41732967"
       inkscape:connector-curvature="0" />
    <path
       id="path505"
       d="m 182.37232,922.16354 9.57582,28.98675 30.39996,0.0573 -24.60907,18.06434 9.33989,28.92974 -24.7849,-17.82257 -24.62795,17.82257 9.29112,-29.07947 -24.5603,-17.91461 30.52703,-0.14974 z"
       style="fill:#008000;stroke:#373435;stroke-width:1.41732967"
       inkscape:connector-curvature="0" />
    <path
       id="path507"
       d="m 182.38778,922.21025 5.26407,1.21677 0.0807,0.24452 9.08059,27.48802 -4.86535,-0.009 z"
       style="fill:#008000;stroke:#373435;stroke-width:1.41732967"
       inkscape:connector-curvature="0" />
    <path
       id="path509"
       d="m 222.73548,951.12144 6.38468,0.27646 -26.10194,19.1379 -5.27919,-1.26381 z"
       style="fill:#008000;stroke:#373435;stroke-width:1.41732967"
       inkscape:connector-curvature="0" />
    <path
       id="path511"
       d="m 197.73732,969.27302 9.33988,28.92973 5.27918,1.26416 -9.33988,-28.93008 z"
       style="fill:#008000;stroke:#373435;stroke-width:1.41732967"
       inkscape:connector-curvature="0" />
    <path
       id="path513"
       d="m 157.66607,998.2 5.27953,1.26416 22.87269,-16.55257 -3.52427,-2.53416 z"
       style="fill:#008000;stroke:#373435;stroke-width:1.41732967"
       inkscape:connector-curvature="0" />
    <path
       id="path515"
       d="m 182.81741,919.71833 7.33117,1.59248 -1.96098,1.67147 -7.33117,-1.59282 z"
       style="fill:#fefefe;stroke:#fefefe;stroke-width:0.70866483"
       inkscape:connector-curvature="0" />
    <path
       id="path517"
       d="m 156.87035,998.47303 7.25012,1.75247 -0.69785,1.4713 -7.1725,-1.4469 z"
       style="fill:#fefefe;stroke:#fefefe;stroke-width:0.70866483"
       inkscape:connector-curvature="0" />
    <path
       id="path519"
       d="m 215.64782,1023.5242 -0.1839,-0.652 0.47836,-0.3565 -0.93155,-0.5535 -0.90676,1.3281 0.99251,0.9716 c 0,0 0.57579,0.209 0.55134,0.1353 -0.0244,-0.074 0,-0.873 0,-0.873 z"
       style="fill:#00a859;stroke:#00a859;stroke-width:0.70866483"
       inkscape:connector-curvature="0" />
    <path
       id="path521"
       d="m 206.47483,999.68327 0.60412,-0.86493 6.37163,1.27096 0.86493,2.372 -3.97811,0.9202 c -0.40359,0.081 -2.99803,-0.923 -3.40162,-1.1881 -0.4036,-0.2651 -0.46099,-2.51013 -0.46099,-2.51013 z"
       style="fill:#fefefe;stroke:#fefefe;stroke-width:0.70866483"
       inkscape:connector-curvature="0" />
    <path
       id="path523"
       d="m 216.77013,994.91133 m 14.98908,-35.90889 c 3.34918,0.50103 6.72598,1.00278 10.12973,1.50415 -0.90569,2.54731 -1.93536,5.11022 -3.00582,7.67312 l -6.50629,-0.9117 c -0.86493,1.92973 -1.70186,3.84915 -2.53918,5.76857 l 6.14913,0.8256 c -1.0297,2.46688 -2.01758,4.91817 -3.01963,7.37441 -2.11398,-0.24803 -4.22757,-0.5216 -6.30044,-0.79514 -0.9606,2.37511 -1.88044,4.75057 -2.75886,7.12604 2.37439,0.29905 4.74913,0.59777 7.13737,0.84085 -0.82347,2.70463 -1.4549,5.38375 -1.53712,7.99203 -3.81583,-0.40006 -7.61821,-0.86105 -11.37909,-1.32166 0.91949,-5.86493 3.07385,-11.92195 5.68247,-17.94458 2.6352,-6.0825 5.4635,-12.11506 7.94773,-18.13165 z m -1.35888,37.47389 m 3.48631,-11.65868 c 1.39999,-0.0861 2.81378,-0.16725 4.20027,-0.24802 -0.50776,1.71676 -0.8164,3.03309 -0.83728,3.96038 -0.0336,1.48361 0.39793,2.25712 1.20794,2.3347 0.61725,0.0592 1.1679,-0.26753 1.7157,-0.97726 0.54781,-0.70973 0.97586,-1.55906 1.30397,-2.5172 0.31712,-0.92622 0.4603,-1.76316 0.41174,-2.52746 -0.0486,-0.7643 -0.53256,-1.49209 -1.38615,-2.26879 -1.41098,-1.28446 -2.12778,-2.8871 -2.15505,-4.79131 -0.0275,-1.90915 0.52263,-4.27008 1.68805,-7.08561 0.76963,-1.85885 1.68559,-3.57808 2.7181,-5.17118 1.03252,-1.5931 2.09485,-2.7702 3.1433,-3.61139 1.0102,-0.81001 2.11326,-1.13493 3.4041,-0.9468 1.59131,0.23175 2.63448,1.2313 2.9098,3.03381 0.27533,1.80252 -0.24696,4.53264 -1.48217,8.21488 l -4.00822,0.16725 c 0.53541,-1.6207 0.77563,-2.81092 0.7551,-3.58587 -0.0206,-0.7597 -0.31678,-1.18418 -0.89223,-1.25613 -0.44007,-0.0549 -0.88158,0.14953 -1.34542,0.67855 -0.44151,0.50388 -0.82807,1.15832 -1.13918,1.94494 -0.22395,0.56552 -0.31572,1.08389 -0.31572,1.57005 0,0.48616 0.2608,0.99285 0.79621,1.48396 1.35853,1.24585 2.20467,2.44314 2.56678,3.5756 0.36211,1.13245 0.45319,2.50054 0.23316,4.09751 -0.21935,1.59344 -0.64311,3.34421 -1.30397,5.28774 -0.76643,2.25533 -1.6317,4.29382 -2.62135,6.17392 -0.97335,1.84819 -1.84325,3.17554 -2.78648,4.14288 -0.804,0.82419 -1.52434,1.25506 -2.85523,1.14485 -2.33401,-0.19345 -4.59253,-1.35853 -5.13361,-3.76339 -0.53293,-2.37086 0.0549,-5.4192 1.20795,-9.06068 z m 10.4458,12.72238 m 12.31242,-34.89577 6.42373,0.87626 c 1.42657,0.1963 2.244,1.23521 2.38821,3.1401 0.1442,1.9049 -0.3671,4.5245 -1.49636,7.87582 -1.16257,3.45049 -2.47148,6.11721 -3.92532,8.00229 -1.45383,1.88508 -3.04727,2.78119 -4.74951,2.6738 l -2.31948,-0.14174 c -0.70019,2.1579 -1.39608,4.29063 -1.9492,6.44746 -0.54461,2.12284 -0.87839,4.24955 -0.89223,6.31603 -1.46871,-0.0457 -2.92361,-0.13181 -4.35124,-0.2179 0.74126,-5.71294 2.45342,-11.57365 4.54329,-17.4074 2.1104,-5.89117 4.35124,-11.73519 6.32805,-17.56472 z m -1.26285,15.36145 1.01552,0.0811 c 0.78274,0.0666 1.48536,-0.23102 2.05902,-0.92729 0.56553,-0.686 1.04564,-1.58917 1.4276,-2.69931 0.38196,-1.11013 0.5556,-2.02042 0.54887,-2.80564 -0.007,-0.78521 -0.37063,-1.21676 -1.11192,-1.29685 -0.38409,-0.0411 -0.75472,-0.0911 -1.13919,-0.12649 -0.91984,2.58808 -1.88044,5.18107 -2.79994,7.77447 z m 3.19787,20.07131 m 10.78877,-33.73619 c 3.50012,0.42554 7.05516,0.86105 10.61019,1.23593 -0.56267,2.30458 -1.20794,4.61912 -1.8939,6.93362 -2.30602,-0.16193 -4.59854,-0.36462 -6.86311,-0.57758 -0.57652,1.77803 -1.13919,3.54549 -1.6884,5.31819 2.15505,0.15699 4.31013,0.30366 6.49248,0.42026 -0.65869,2.21848 -1.30396,4.44194 -1.94885,6.66042 l -6.68487,-0.25335 c -0.64524,2.19296 -1.26286,4.38098 -1.83934,6.57398 2.49807,0.061 5.03758,0.11161 7.59056,0.10134 -0.5354,2.44631 -0.9333,4.86714 -0.96094,7.25287 -4.0628,0.0758 -8.11213,0.0858 -12.13385,0.0911 0.61796,-5.52549 2.09945,-11.17606 3.89839,-16.81001 1.81101,-5.67076 3.73362,-11.31991 5.42168,-16.94675 z m 3.73362,33.6299 m 1.53746,-0.0454 c 0.5216,-5.26754 1.74651,-10.63643 3.23932,-15.99962 1.49955,-5.38942 3.10185,-10.75264 4.48837,-16.10593 2.22381,0.22783 4.46107,0.44718 6.69834,0.61264 1.24867,0.0925 2.16181,0.42307 2.73156,0.97266 0.56975,0.54959 0.89858,1.5038 0.98825,2.89173 0.0897,1.38794 -0.12082,3.02956 -0.60413,4.96883 -0.42238,1.69691 -0.95775,3.1571 -1.60583,4.38064 -0.64809,1.22353 -1.34717,2.23692 -2.1136,3.01362 -0.48262,0.48935 -1.11192,0.90177 -1.82553,1.226 0.4252,0.37983 0.6952,0.75156 0.85078,1.12926 0.10488,0.25514 0.2133,0.7891 0.32952,1.6055 0.11621,0.8164 0.18249,1.44851 0.19204,1.89428 0.0316,1.46836 0.0889,2.92927 0.20589,4.37604 0.11694,1.44676 0.41173,2.86656 0.83728,4.26442 -1.72951,0.10667 -3.43137,0.22288 -5.13361,0.33412 -0.45284,-1.50913 -0.74799,-3.0356 -0.86458,-4.5936 -0.11659,-1.558 -0.15519,-3.14508 -0.17858,-4.73038 -0.0179,-1.22529 -0.0602,-2.02891 -0.20589,-2.40593 -0.18318,-0.4741 -0.49395,-0.72037 -0.89223,-0.72425 l -0.38446,0.005 c -0.54887,2.14231 -1.0896,4.27575 -1.52366,6.417 -0.43406,2.14124 -0.6998,4.23924 -0.71364,6.31565 -1.49601,0.0556 -3.00583,0.10134 -4.51564,0.152 z m 8.37258,-18.88177 1.7848,0.0358 c 0.20589,0.002 0.61584,-0.13112 1.24902,-0.405 0.31358,-0.13572 0.64029,-0.44574 0.9606,-0.97266 0.32032,-0.52692 0.56374,-1.11401 0.74126,-1.79788 0.26148,-1.00738 0.3221,-1.78655 0.19239,-2.33469 -0.12972,-0.54815 -0.57652,-0.84793 -1.33158,-0.88159 -0.60378,-0.0264 -1.20794,-0.0503 -1.82553,-0.0808 -0.60412,2.14197 -1.1941,4.29488 -1.77096,6.43684 z m 5.98473,18.11678 m 10.91244,-5.75332 -5.17471,0.4252 c -0.46703,1.64128 -0.85112,3.27191 -1.04317,4.88771 -1.56473,0.15698 -3.12983,0.31393 -4.68076,0.44045 1.30397,-5.02412 3.18015,-10.12156 5.21583,-15.16907 2.02715,-5.02587 4.09044,-9.99755 5.95707,-14.91537 1.48255,0.0556 2.9789,0.10629 4.48872,0.096 -0.0688,4.79663 -0.23316,9.57234 -0.30191,14.30802 -0.0684,4.68927 0.12367,9.32927 0.78236,13.8775 l -4.81789,0.66862 c -0.28844,-1.51442 -0.39827,-3.06427 -0.42554,-4.61911 z m 0.19205,-6.20936 c 0.0822,-1.72703 0.17219,-3.46502 0.3019,-5.20164 0.12972,-1.73661 0.2608,-3.49977 0.41208,-5.25727 l -1.963,5.30261 c -0.6587,1.77274 -1.29012,3.55043 -1.90809,5.33344 l 3.15711,-0.17717 z m 4.99647,10.16974 m 5.98472,-28.29644 3.92532,-0.29906 c 0.48049,2.47681 0.92908,4.94437 1.38653,7.38467 0.44824,2.39105 0.9333,4.76579 1.4687,7.12604 0.37063,-2.50727 0.79583,-5.02731 1.1941,-7.54663 0.39828,-2.51933 0.75472,-5.03439 1.08428,-7.54132 l 3.98061,-0.62328 c -0.53541,4.47738 -1.20083,8.96678 -1.83934,13.45727 -0.6385,4.4905 -1.12538,8.97458 -1.30396,13.41652 -1.46871,0.3391 -2.92361,0.67855 -4.37851,0.98258 -0.94714,-2.28404 -1.66288,-4.60317 -2.2238,-6.95381 -0.56412,-2.36519 -1.00171,-4.77606 -1.46836,-7.19228 -0.43939,2.53773 -0.89824,5.08222 -1.27666,7.62243 -0.37843,2.5402 -0.63143,5.05492 -0.64524,7.54664 -1.44109,0.26361 -2.89634,0.50137 -4.3374,0.69911 0.27461,-4.62406 0.97513,-9.31934 1.85318,-14.00934 0.87804,-4.69 1.81172,-9.38988 2.58062,-14.06958 z m 11.43367,25.01461 m 3.47247,-26.9748 c 4.32394,-1.13459 8.64753,-2.70464 12.98497,-4.79131 -0.15094,2.25392 -0.28807,4.49757 -0.48049,6.74617 -1.48217,0.6938 -2.99199,1.38793 -4.47453,2.01583 -0.34299,3.38318 -0.71399,6.77663 -1.04317,10.15984 -0.32917,3.38322 -0.56267,6.76675 -0.63143,10.11944 l -4.62584,1.36241 c 0.0687,-3.32755 0.33731,-6.68772 0.71399,-10.04326 0.37667,-3.35554 0.82347,-6.73624 1.20756,-10.10421 -1.49601,0.43547 -2.97818,0.81533 -4.46072,1.17497 0.31571,-2.21848 0.57651,-4.42669 0.80966,-6.63988 z m 10.95355,22.55837 m 1.72951,-13.99903 c 0.18391,-2.23905 0.52407,-4.30447 0.97479,-6.19411 0.45497,-1.90844 1.07397,-3.68935 1.78407,-5.36851 1.40387,-3.31976 3.20426,-5.72465 5.39441,-7.52641 2.29822,-1.89071 3.97137,-2.29644 5.16125,-0.90143 0.59423,0.69661 1.01445,1.81598 1.29012,3.38318 0.2732,1.55271 0.36531,3.53484 0.30191,5.93084 -0.046,1.7419 -0.14352,3.39771 -0.32917,4.95323 -0.18566,1.55553 -0.42307,3.01751 -0.72746,4.36577 -0.61511,2.72377 -1.46657,5.16193 -2.60827,7.29363 -1.08214,2.02149 -2.44136,3.45513 -4.11771,4.43662 -1.64553,0.96342 -3.08199,1.11047 -4.22757,0.62789 -1.07788,-0.45391 -1.93288,-1.6023 -2.4984,-3.41331 -0.28526,-0.91382 -0.43228,-2.02148 -0.49396,-3.2875 -0.0617,-1.26601 -0.0351,-2.70498 0.096,-4.29986 z m 4.47453,-2.36022 c -0.17752,2.8347 -0.061,4.73887 0.42592,5.6878 0.48688,0.94892 1.22068,1.16363 2.18235,0.53681 0.96167,-0.62683 1.75856,-1.75183 2.34713,-3.35272 0.58857,-1.60089 0.96449,-4.06777 1.09808,-7.31843 0.11302,-2.75069 -0.0624,-4.53689 -0.54887,-5.38375 -0.4865,-0.84687 -1.18524,-0.91771 -2.10013,-0.19772 -0.85572,0.67288 -1.59877,1.82093 -2.21,3.41365 -0.59633,1.55233 -1.01552,3.76126 -1.19444,6.61436 z"
       style="fill:#373435;fill-rule:nonzero;stroke-width:3.43428564"
       inkscape:connector-curvature="0" />
  </g>
  <g
     id="g6512"
     transform="matrix(0.96364886,0,0,0.88283478,4.0153488,16.080693)">
    <path
       style="stroke-width:0.64587319"
       id="path1007"
       d="m 325.85625,640.63507 c 12.37344,7.55673 9.79836,25.64557 8.37662,35.49628 -1.23753,8.56697 0.30955,8.15312 1.82307,17.08057 1.93954,11.45338 -6.42442,8.97225 -10.10157,15.74741 -6.42252,11.83561 4.307,33.99969 7.78538,45.7549 3.68539,12.45704 4.32853,25.2271 -2.0693,35.59841 -8.53044,13.82842 -22.63833,25.79582 -32.76648,38.77874 -7.69107,9.85993 -13.6306,21.14198 -20.05375,30.77653 -13.14508,19.71656 -36.85003,29.6358 -58.78065,18.56925 -29.4571,-14.867 -5.05711,-53.20158 6.49468,-69.17503 11.53597,-15.95302 22.8871,-37.37903 24.35062,-59.21295 0.63934,-9.54493 0.0779,-19.14653 0.86659,-28.67696 0.67669,-8.17158 -4.28737,-4.75665 -9.29322,-8.66517 -5.70088,-4.45284 -3.14352,-8.94721 -3.05427,-14.4136 0.21523,-13.33417 -7.69613,-31.07308 0.19749,-43.59997 9.36791,-14.867 44.23472,-16.05122 60.30746,-16.00377 8.57096,0.0244 17.70149,1.27648 25.91732,1.948"
       inkscape:connector-curvature="0" />
    <path
       id="path1009"
       d="m 326.45128,647.61123 c 6.94538,13.86004 -0.62984,23.5572 0.59187,37.34278 0.32284,3.64031 4.6849,9.08627 3.64676,12.82344 -2.32757,8.37653 -21.91985,9.63983 -29.26783,10.15648 -14.45288,1.01486 -34.56993,5.47232 -48.67971,2.56416 -11.80563,-2.43236 -7.5037,-7.42559 -7.58789,-17.23477 -0.081,-9.39007 -5.95092,-19.15114 -4.73048,-28.31385 2.64851,-19.86616 37.6913,-19.78313 52.81833,-20.1581 9.93825,-0.24778 24.32276,-2.93649 33.20895,2.81986"
       style="fill:#008000;stroke-width:0.64587319"
       inkscape:connector-curvature="0" />
    <path
       style="stroke-width:0.64587319"
       id="path1011"
       d="m 324.57757,650.07324 c 0.56845,18.38737 -29.26973,8.45561 -37.74193,14.15726 -7.42964,5.00048 1.76989,26.34213 1.77369,36.00897 -6.12247,-6.78109 -0.86406,-41.13927 -16.35887,-34.98291 -5.85281,2.32494 -2.48076,8.44045 -1.18183,15.79882 1.21981,6.90564 3.02705,13.64719 3.34989,20.72285 -6.28579,-7.33399 -5.33184,-26.14904 -8.081,-35.49561 -6.32504,0.14761 -21.30837,0.48436 -18.72316,-9.33603 1.95157,-7.40977 17.69325,-5.34579 4.04113,2.46202 11.25998,5.91517 29.71854,0.39079 42.17617,-1.02606 9.14256,-1.0399 16.94314,0.009 25.03047,-5.43673 -11.0188,0.79409 -0.89065,-11.50545 5.71544,-2.87258"
       inkscape:connector-curvature="0" />
    <path
       style="stroke-width:0.64587319"
       id="path1013"
       d="m 293.33855,657.45995 c -7.20302,-6.90959 0.10509,-13.92331 0,0"
       inkscape:connector-curvature="0" />
    <path
       style="stroke:none;stroke-width:0.64587319;stroke-opacity:1"
       id="path1015"
       d="m 185.04325,656.94659 c 3.67462,7.98047 -1.01725,18.73861 1.18246,27.90462 1.8832,7.84471 7.47901,16.08812 4.92672,24.31373 -1.82624,5.88683 -9.23498,7.46447 -11.03653,12.7727 -1.88763,5.5626 4.55451,15.22945 6.01106,20.67145 3.27773,12.24221 3.50688,27.03408 2.16743,39.59854 -1.25526,11.77563 -9.17168,16.81367 -16.65385,24.10944 -11.2796,10.99736 -18.00723,23.61322 -24.93109,36.2126 -8.30066,15.10358 -18.98649,34.15916 -40.89559,37.23998 -13.973688,1.96381 -31.772021,-15.57476 -30.449031,-29.33991 1.872442,-19.47142 7.050462,-26.33686 16.260119,-42.36962 7.945538,-13.83369 12.107572,-25.77605 14.337672,-42.01047 1.23373,-8.98214 3.92213,-17.06871 3.89237,-26.72435 -0.0519,-17.19128 -4.20191,-7.62988 -12.218982,-15.79882 -7.304298,-7.44206 -0.498178,-29.88424 -0.886846,-39.59853 -0.72986,-18.25556 -4.805177,-30.59728 17.638818,-31.28923 14.5972,-0.45009 29.57674,-2.15492 44.14736,-2.15492 7.3005,0 16.13478,-4.02252 22.66554,1.23101 1.74394,1.40301 3.00553,3.12497 3.84237,5.23178"
       inkscape:connector-curvature="0" />
    <path
       style="stroke-width:0.64587319"
       id="path1017"
       d="m 304.17567,652.94582 c -3.46953,0.56871 -5.38944,-6.40151 0,0"
       inkscape:connector-curvature="0" />
    <path
       style="stroke-width:0.64587319"
       id="path1019"
       d="m 273.43039,657.86985 c -1.46415,-3.09927 -2.47317,-5.17841 -0.88558,-7.79661 2.29339,3.0571 1.71672,5.03475 0.88558,7.79661"
       inkscape:connector-curvature="0" />
    <path
       style="stroke-width:0.64587319"
       id="path1021"
       d="m 282.00767,650.99716 c 0.43804,2.20171 1.42681,3.10718 0.39436,4.92403 -3.003,-3.45974 -1.42237,-3.71741 -0.39436,-4.92403"
       inkscape:connector-curvature="0" />
    <path
       id="path1023"
       d="m 180.30834,659.92197 c 1.3021,5.15073 -1.58,12.76875 -0.98497,18.877 0.79823,8.20189 4.36334,15.45021 6.45417,23.28701 3.71324,13.91738 -30.25343,15.72963 -40.15623,15.49107 -10.97259,-0.26359 -20.01007,-1.27846 -30.64717,2.87257 -14.5915,5.69441 -14.48452,-5.76821 -13.89456,-16.92768 0.59313,-11.19704 -5.91674,-39.87729 4.73048,-45.03593 8.79061,-4.2591 29.02476,-0.12191 39.12253,-1.02606 8.58488,-0.76905 31.01051,-8.26647 35.37575,2.46202"
       style="fill:#008000;stroke-width:0.64587319"
       inkscape:connector-curvature="0" />
    <path
       style="stroke-width:0.64587319"
       id="path1025"
       d="m 175.08601,661.87129 c -2.8802,6.03115 -11.48533,7.67007 -17.44258,8.71986 -6.71624,1.18356 -14.57948,1.40301 -21.3837,1.64156 -7.53345,0.26294 -18.57314,2.27289 -25.96606,0.5127 -8.81339,-2.09825 -9.86166,-11.82044 -2.70991,-10.87412 -1.57367,-0.20825 -0.70518,4.8489 2.75929,5.95009 5.91864,1.88144 6.84536,-2.17206 7.48913,-5.95009 -1.13752,10.33704 13.79012,7.30169 10.84029,-2.46268 h 1.97119 c -3.92782,13.406 13.67871,6.02917 19.80688,5.84795 -0.55262,-1.46034 -0.7248,-4.04625 -1.3806,-5.84795 h 1.3806 c 0.63364,9.05859 9.10584,7.10729 15.17577,3.89863 3.67842,-1.94404 9.9737,-11.04085 9.4597,-1.43595"
       inkscape:connector-curvature="0" />
    <path
       style="stroke-width:0.64587319"
       id="path1027"
       d="m 160.40651,658.89591 c -0.10192,2.38755 1.27109,3.41097 -0.98559,4.41133 -0.81216,-2.28804 1.00015,-4.64923 0.98559,-4.41133"
       inkscape:connector-curvature="0" />
    <path
       style="stroke-width:0.64587319"
       id="path1029"
       d="m 298.95334,670.69329 c 2.1497,5.15732 3.65563,19.29613 3.34926,26.5708 -2.31682,-2.41984 -4.03544,-9.35909 -4.6311,-14.0037 -0.8495,-6.63414 -2.40797,-11.86395 -3.44801,-18.41439 1.28944,1.39247 3.60563,3.85251 4.72985,5.84729"
       inkscape:connector-curvature="0" />
    <path
       style="stroke-width:0.64587319"
       id="path1031"
       d="m 311.76546,666.69252 c 2.78904,3.91708 5.73696,26.42648 4.23673,30.16168 -4.04746,-10.25335 -3.7126,-21.33638 -6.60229,-31.59764 1.13625,0.15157 1.57429,0.93973 2.36556,1.43596"
       inkscape:connector-curvature="0" />
    <path
       style="stroke-width:0.64587319"
       id="path1033"
       d="m 255.49723,671.71935 c -1.70153,5.04991 1.93827,14.4169 2.66054,20.10801 0.53172,4.18596 0.85962,8.25856 1.57746,12.41289 -5.11852,-3.50917 -2.63396,-8.90043 -3.44927,-14.56781 -1.22361,-8.50964 -3.31128,-13.4831 -2.66054,-22.36376 2.54723,0.78091 1.61544,2.07387 1.87181,4.41067"
       inkscape:connector-curvature="0" />
    <path
       style="stroke-width:0.64587319"
       id="path1035"
       d="m 324.08383,675.10529 c 1.28374,3.49927 1.20145,7.1666 -0.98497,9.43817 -0.6235,-4.84166 -0.0374,-9.68859 -1.38059,-14.36221 1.90093,0.96807 1.7471,2.56548 2.36556,4.92404"
       inkscape:connector-curvature="0" />
    <path
       style="stroke-width:0.64587319"
       id="path1037"
       d="m 107.38816,674.18203 c 1.6914,10.19799 5.89015,26.98004 1.97119,36.41887 -2.43772,-4.04559 0.55705,-6.77648 0.19686,-12.00299 -0.56401,-8.19135 -7.50559,-17.35603 -2.16805,-24.41588"
       inkscape:connector-curvature="0" />
    <path
       style="stroke-width:0.64587319"
       id="path1039"
       d="m 136.26099,681.56808 c -0.45387,6.21106 -0.031,12.93811 2.06994,18.77354 0.77924,2.16612 4.23737,14.09596 0,8.72052 -6.3225,-8.02133 -1.35337,-24.59974 -6.30667,-33.44415 2.80233,0.91732 3.11187,2.9846 4.23673,5.95009"
       inkscape:connector-curvature="0" />
    <path
       style="stroke-width:0.64587319"
       id="path1041"
       d="m 123.94389,699.72611 c 1.01978,3.05709 1.50973,6.32177 2.36492,9.43817 -4.89126,-0.4211 -8.57601,-27.77347 -6.10981,-32.52023 2.20541,7.54882 1.88701,15.47525 3.74489,23.08206"
       inkscape:connector-curvature="0" />
    <path
       style="stroke-width:0.64587319"
       id="path1043"
       d="m 153.20919,683.41525 c 1.27805,7.36299 3.08086,18.72873 2.95616,24.21027 -7.84806,-5.33261 -3.05111,-21.02863 -5.71545,-29.54552 3.75122,0.43428 2.49786,2.41128 2.75929,5.33525"
       inkscape:connector-curvature="0" />
    <path
       style="stroke-width:0.64587319"
       id="path1045"
       d="m 168.48372,685.46671 c 1.32172,5.16127 3.66132,16.49077 1.87244,20.72285 -3.60436,-7.96465 -3.64994,-18.5989 -5.71481,-28.10956 2.2725,2.10814 2.92197,4.40277 3.84237,7.38671"
       inkscape:connector-curvature="0" />
    <g
       id="g1051"
       style="fill:#00aa00"
       transform="matrix(0.63300968,0,0,0.65899805,75.292033,638.6851)">
      <path
         style="fill:#00aa00"
         id="path1047"
         d="m 387.74,138.24 c 2.6,7.464 5.435,17.039 7.474,25.375 -23.228,1.7 -37.462,28.39 -34.093,49.814 2.016,12.823 21.212,28.171 14.011,36.274 -24.729,27.823 -40.611,65.425 -66.628,88.888 -10.865,-34.402 -53.337,-46.17 -85.154,-44.211 18.979,-35.336 48.343,-61.494 58.066,-107.65 2.482,-11.782 4.894,-24.386 4.124,-37.362 -0.16998,-2.894 -1.254,-17.932 0.39102,-22.963 3.181,-9.732 0.72998,-8.501 14.825,-9.49 12.202,-0.856 24.41,-1.677 36.616,-2.491 14.736,-0.982 37.121,0.093 48.968,-5.298 1.563,9.175 1.137,19.53 1.4,29.111"
         inkscape:connector-curvature="0" />
      <path
         style="fill:#00aa00"
         id="path1049"
         d="m 157.65,121.89 c 1.722,13.463 5.608,25.668 9.029,36.739 5.081,16.448 -0.802,13.447 -16.423,20.394 -35.023,15.574 -22.503,52.382 -6.771,72.855 -25.285,15.938 -26.787,52.173 -48.571,70.987 -19.366,-25.025 -48.111,-36.57 -80.017,-35.184 9.315,-19.483 23.59,-34.527 33.314,-56.82 7.047,-16.156 9.286,-34.101 11.987,-50.75 0.854,-5.261 1.258,-14.452 1.868,-21.172 1.561,-17.195 -8.161,-24.479 11.052,-30.2 15.104,-4.497 32.907,0.45201 48.26,-0.155 12.585,-0.49699 23.703,-5.838 36.272,-6.694"
         inkscape:connector-curvature="0" />
    </g>
    <g
       id="g1061"
       style="fill:#008000"
       transform="matrix(0.63300968,0,0,0.65899805,75.292033,638.6851)">
      <path
         style="fill:#008000"
         id="path1053"
         d="m 405.02,193.5 c 0.29501,16.012 -4.823,37.393 -23.195,48.57 -9.084,-13.574 -18.254,-28.068 -12.921,-47.948 2.324,-8.667 5.674,-19.479 15.566,-22.882 16.717,-5.75 15.631,9.515 20.55,22.26"
         inkscape:connector-curvature="0" />
      <path
         style="fill:#008000"
         id="path1055"
         d="m 171.04,186.03 c 0.866,26.009 -1.692,45.02 -23.194,62.115 -9.992,-11.333 -23.475,-33.652 -11.909,-48.261 3.401,-4.297 37.581,-35.299 35.103,-13.854"
         inkscape:connector-curvature="0" />
      <path
         style="fill:#008000"
         id="path1057"
         d="m 34.358,293.76 c 15.569,3.383 53.806,12.062 56.199,31.134 2.298,18.311 -39.711,36.155 -56.666,30.356 -26.817,-9.172 -41.49,-76.889 0.467,-61.49"
         inkscape:connector-curvature="0" />
      <path
         style="fill:#008000"
         id="path1059"
         d="m 299.47,330.34 c 22.001,29.744 -68.79,47.377 -80.405,12.533 -3.157,-9.472 -7.828,-35.702 1.169,-42.576 20.648,-15.78 67.744,13.553 79.236,30.043"
         inkscape:connector-curvature="0" />
    </g>
  </g>
  <g
     id="g6475"
     transform="matrix(0.84406285,0,0,0.82796259,34.175253,61.565915)">
    <path
       inkscape:connector-curvature="0"
       style="color:#000000;font-style:normal;font-variant:normal;font-weight:normal;font-stretch:normal;font-size:medium;line-height:normal;font-family:sans-serif;font-variant-ligatures:normal;font-variant-position:normal;font-variant-caps:normal;font-variant-numeric:normal;font-variant-alternates:normal;font-feature-settings:normal;text-indent:0;text-align:start;text-decoration:none;text-decoration-line:none;text-decoration-style:solid;text-decoration-color:#000000;letter-spacing:normal;word-spacing:normal;text-transform:none;writing-mode:lr-tb;direction:ltr;text-orientation:mixed;dominant-baseline:auto;baseline-shift:baseline;text-anchor:start;white-space:normal;shape-padding:0;clip-rule:nonzero;display:inline;overflow:visible;visibility:visible;opacity:1;isolation:auto;mix-blend-mode:normal;color-interpolation:sRGB;color-interpolation-filters:linearRGB;solid-color:#000000;solid-opacity:1;vector-effect:none;fill:#008000;fill-opacity:1;fill-rule:evenodd;stroke:#000000;stroke-width:1;stroke-linecap:butt;stroke-linejoin:miter;stroke-miterlimit:4;stroke-dasharray:none;stroke-dashoffset:0;stroke-opacity:1;color-rendering:auto;image-rendering:auto;shape-rendering:auto;text-rendering:auto;enable-background:accumulate"
       d="m 251.26674,448.75546 c -1.67317,3.78622 -5.17153,7.5286 -5.09902,12.94635 0.12456,9.31482 -3.27292,19.2933 -5.94298,29.3499 -2.63998,-2.36979 -5.42213,-4.48587 -7.78938,-5.59486 -0.92389,-0.43281 -1.76277,-0.73314 -2.5374,-0.84604 -0.77464,-0.11284 -1.61625,-0.0815 -2.24912,0.6391 -0.63286,0.72058 -0.62099,1.77491 -0.35761,2.72317 0.26338,0.94823 0.78184,2.0109 1.60431,3.34523 0.71195,1.15502 1.55624,3.83506 2.30413,6.69899 0.74789,2.86392 1.45567,5.94518 2.1919,8.24986 0.36811,1.15236 0.71949,2.10338 1.21038,2.8437 0.24545,0.37016 0.53066,0.72564 1.01012,0.93369 0.47946,0.20801 1.14558,0.097 1.5559,-0.22034 0.82064,-0.63473 1.13575,-1.58233 1.56359,-3.0555 0.42784,-1.47316 0.8514,-3.50949 1.29731,-6.2851 0.27051,-1.68374 0.92903,-3.45157 1.33142,-5.15784 0.44344,0.48424 1.04546,0.91895 1.42606,1.40359 2.5844,3.29075 3.3839,6.5406 3.10628,9.93344 -0.27764,3.39286 -1.70823,6.95065 -3.7885,10.50437 -4.16052,7.1074 -10.83991,14.10012 -15.23323,20.11522 -1.41421,1.93622 -3.58288,2.85333 -6.33802,3.25271 -2.75513,0.39938 -6.0209,0.24378 -9.31225,0.13756 -3.29134,-0.10624 -6.61097,-0.16243 -9.58514,0.55753 -0.24278,0.0587 -0.43931,0.22393 -0.67781,0.2946 -1.98364,-1.45892 -3.83747,-3.05252 -6.13005,-4.1645 -7.25216,-3.51748 -15.62637,-5.65943 -21.99268,-7.9504 -5.41271,-1.9478 -14.12528,-5.32047 -21.88704,-5.70078 -1.26102,-0.0617 -2.44281,0.11552 -3.64326,0.23495 0.72415,-2.24548 1.57237,-4.6753 1.85519,-6.24857 0.62829,-3.49508 -0.36933,-6.77852 -2.27552,-9.61084 -1.90619,-2.83234 -4.70664,-5.29762 -7.89281,-7.48174 -6.37232,-4.36829 -14.32016,-7.60096 -19.85469,-9.68023 l -0.68552,2.22772 c 5.48332,2.06002 13.32084,5.27502 19.41676,9.45381 3.04796,2.0894 5.65347,4.4236 7.31182,6.88767 1.65834,2.46409 2.38532,4.97193 1.8871,7.74346 -0.28934,1.60956 -1.1962,4.33461 -2.09507,6.98506 -1.62014,0.37763 -3.16039,0.93312 -4.50813,1.86739 -2.91652,2.02169 -4.92911,5.55819 -5.3906,10.7527 -0.19855,2.2347 -0.20835,3.76182 0.0253,4.90464 0.11681,0.57139 0.28885,1.0965 0.71523,1.52288 0.42638,0.42641 1.13686,0.54058 1.62191,0.37737 0.97011,-0.3264 1.52816,-1.10797 2.22931,-2.12546 0.70115,-1.01751 1.44172,-2.33348 2.204,-3.84677 1.66536,-3.30609 3.33051,-7.40289 4.7282,-11.33703 1.34697,-0.20706 2.74001,-0.34937 4.25505,-0.27512 7.26863,0.35614 15.86685,3.62713 21.32146,5.59 6.51372,2.34402 14.80815,4.47794 21.79681,7.86763 1.75269,0.85009 3.0209,2.05256 4.54995,3.06889 -1.65413,0.91239 -3.15475,2.10529 -4.16702,4.03912 -2.98008,5.69309 -3.30421,10.79693 -2.03785,14.75042 1.26637,3.95353 4.06536,6.70178 7.11926,7.85911 3.0539,1.15732 6.47778,0.7187 8.74998,-1.85522 2.27219,-2.57391 3.19608,-7.04593 1.86399,-13.40649 -0.91374,-4.36303 -3.27032,-7.71964 -6.2797,-10.53602 2.29158,-0.33371 4.72848,-0.49981 7.38995,-0.41389 3.26652,0.10529 6.61234,0.28773 9.64786,-0.15217 3.03552,-0.44004 5.84112,-1.53748 7.71895,-4.1085 4.23217,-5.79442 10.99044,-12.8431 15.36637,-20.31851 2.18795,-3.73769 3.79779,-7.60972 4.12191,-11.57076 0.32413,-3.96106 -0.71255,-7.98615 -3.62235,-11.69126 -0.66144,-0.84221 -1.59745,-1.5552 -2.38665,-2.36407 2.67185,-10.24668 6.43105,-20.73102 6.29179,-31.14912 -0.0566,-4.22537 2.97593,-7.56972 4.88225,-11.88361 z m -22.0433,38.06481 c 0.013,-0.0239 0.008,0.008 0.0242,0.11686 0.0778,-0.009 0.18916,-0.0153 0.37192,0.011 0.4645,0.0676 1.17003,0.29922 1.98392,0.68048 2.30136,1.07813 5.28549,3.41339 7.98084,5.94912 -0.53173,2.17391 -1.30201,4.32067 -1.65163,6.4969 -0.43643,2.71657 -0.84989,4.67777 -1.22689,5.97589 -0.26655,0.91782 -0.40521,1.06773 -0.53587,1.30255 -0.22132,-0.41349 -0.48961,-0.97979 -0.77354,-1.86861 -0.67826,-2.12322 -1.38879,-5.2056 -2.15008,-8.12083 -0.7613,-2.91525 -1.51951,-5.63089 -2.59133,-7.36973 -0.75438,-1.22388 -1.17552,-2.15735 -1.33032,-2.71466 -0.0466,-0.16789 -0.0661,-0.26903 -0.077,-0.34207 -0.12003,0.0135 -0.1408,0.0325 -0.0726,-0.0451 0.0281,-0.032 0.0412,-0.0585 0.0484,-0.0718 z m -85.22093,40.28399 c -1.23758,3.30882 -2.64905,6.75719 -3.99207,9.42338 -0.73115,1.45147 -1.43708,2.68888 -2.03785,3.5607 -0.41228,0.59832 -0.59096,0.7072 -0.79445,0.8923 -0.11081,-0.67631 -0.16065,-1.9157 0.0165,-3.91007 0.41404,-4.66051 2.03129,-7.34419 4.40029,-8.98635 0.68641,-0.47581 1.58444,-0.67758 2.40757,-0.97996 z m 56.7549,16.99154 c 3.46618,2.77992 6.29438,5.99012 7.21939,10.40699 1.23504,5.89717 0.29637,9.40713 -1.31382,11.23111 -1.61018,1.824 -4.08463,2.19912 -6.53717,1.26968 -2.45254,-0.92944 -4.76783,-3.17012 -5.80654,-6.41292 -1.03872,-3.24278 -0.86554,-7.54441 1.87609,-12.78199 1.03109,-1.96978 2.64582,-3.00327 4.56205,-3.71287 z"
       id="path8725" />
    <rect
       style="color:#000000;clip-rule:nonzero;display:inline;overflow:visible;visibility:visible;opacity:1;isolation:auto;mix-blend-mode:normal;color-interpolation:sRGB;color-interpolation-filters:linearRGB;solid-color:#000000;solid-opacity:1;vector-effect:none;fill:#008000;fill-opacity:1;fill-rule:nonzero;stroke:#000000;stroke-width:3.00191879;stroke-linecap:butt;stroke-linejoin:miter;stroke-miterlimit:4;stroke-dasharray:none;stroke-dashoffset:0;stroke-opacity:1;color-rendering:auto;image-rendering:auto;shape-rendering:auto;text-rendering:auto;enable-background:accumulate"
       id="rect8567"
       width="28.89493"
       height="83.635689"
       x="241.22583"
       y="319.94342"
       ry="14.355379"
       transform="matrix(0.95876153,0.28421178,-0.23539381,0.97190007,0,0)" />
    <path
       style="fill:#006400;fill-opacity:1;fill-rule:evenodd;stroke:none;stroke-width:0.55928576px;stroke-linecap:butt;stroke-linejoin:miter;stroke-opacity:1"
       d="m 161.59989,385.31846 c -2.39945,0.90352 -4.51381,2.61158 -6.01848,4.91276 2.61131,12.33682 13.60125,54.87689 13.60125,54.87689 3.46256,-3.24998 -4.56779,-45.74702 -7.58277,-59.78965 z"
       id="path8618"
       inkscape:connector-curvature="0" />
    <path
       style="color:#000000;clip-rule:nonzero;display:inline;overflow:visible;visibility:visible;opacity:1;isolation:auto;mix-blend-mode:normal;color-interpolation:sRGB;color-interpolation-filters:linearRGB;solid-color:#000000;solid-opacity:1;vector-effect:none;fill:#00aa00;fill-opacity:1;fill-rule:nonzero;stroke:#000000;stroke-width:3;stroke-linecap:butt;stroke-linejoin:miter;stroke-miterlimit:4;stroke-dasharray:none;stroke-dashoffset:0;stroke-opacity:1;color-rendering:auto;image-rendering:auto;shape-rendering:auto;text-rendering:auto;enable-background:accumulate"
       d="m 65.806714,363.91387 c 0.498585,1.33981 0.66852,2.742 0.976858,4.02814 L 91.12639,468.44927 c 2.275749,9.39617 11.39851,14.7993 20.45473,12.1147 l 44.8021,-13.28097 c 9.05622,-2.68459 14.51481,-12.41016 12.23906,-21.80633 L 144.27946,344.96941 c -0.50214,-1.35422 -0.68986,-2.71906 -0.97452,-4.02883 -3.49994,-14.45201 -24.56101,-24.63697 -45.961758,-18.29311 -21.400731,6.34388 -35.037035,26.81458 -31.536468,41.2664 z"
       id="rect8558"
       inkscape:connector-curvature="0" />
    <rect
       transform="matrix(0.95876152,-0.28421179,0.23539381,0.97190007,0,0)"
       style="color:#000000;clip-rule:nonzero;display:inline;overflow:visible;visibility:visible;opacity:1;isolation:auto;mix-blend-mode:normal;color-interpolation:sRGB;color-interpolation-filters:linearRGB;solid-color:#000000;solid-opacity:1;vector-effect:none;fill:#008000;fill-opacity:1;fill-rule:nonzero;stroke:#000000;stroke-width:1.00063956;stroke-linecap:butt;stroke-linejoin:miter;stroke-miterlimit:4;stroke-dasharray:none;stroke-dashoffset:0;stroke-opacity:1;color-rendering:auto;image-rendering:auto;shape-rendering:auto;text-rendering:auto;enable-background:accumulate"
       id="rect8569"
       width="67.002731"
       height="22.851282"
       x="-14.818861"
       y="484.57355"
       ry="11.425641" />
    <g
       style="fill:#00d400"
       id="g8616"
       transform="matrix(1.9061375,-0.57218403,0.59547285,1.8012438,-77.07956,202.00299)">
      <rect
         ry="0.58562911"
         y="166.89275"
         x="46.844646"
         height="7.6131783"
         width="1.1712582"
         id="rect8571"
         style="color:#000000;clip-rule:nonzero;display:inline;overflow:visible;visibility:visible;opacity:1;isolation:auto;mix-blend-mode:normal;color-interpolation:sRGB;color-interpolation-filters:linearRGB;solid-color:#000000;solid-opacity:1;vector-effect:none;fill:#00d400;fill-opacity:1;fill-rule:nonzero;stroke:none;stroke-width:5.29166651;stroke-linecap:butt;stroke-linejoin:miter;stroke-miterlimit:4;stroke-dasharray:none;stroke-dashoffset:0;stroke-opacity:1;color-rendering:auto;image-rendering:auto;shape-rendering:auto;text-rendering:auto;enable-background:accumulate" />
      <rect
         style="color:#000000;clip-rule:nonzero;display:inline;overflow:visible;visibility:visible;opacity:1;isolation:auto;mix-blend-mode:normal;color-interpolation:sRGB;color-interpolation-filters:linearRGB;solid-color:#000000;solid-opacity:1;vector-effect:none;fill:#00d400;fill-opacity:1;fill-rule:nonzero;stroke:none;stroke-width:5.29166651;stroke-linecap:butt;stroke-linejoin:miter;stroke-miterlimit:4;stroke-dasharray:none;stroke-dashoffset:0;stroke-opacity:1;color-rendering:auto;image-rendering:auto;shape-rendering:auto;text-rendering:auto;enable-background:accumulate"
         id="rect8573"
         width="1.1712582"
         height="7.6131783"
         x="51.881054"
         y="166.89275"
         ry="0.58562911" />
      <rect
         ry="0.58562911"
         y="166.89275"
         x="56.917465"
         height="7.6131783"
         width="1.1712582"
         id="rect8575"
         style="color:#000000;clip-rule:nonzero;display:inline;overflow:visible;visibility:visible;opacity:1;isolation:auto;mix-blend-mode:normal;color-interpolation:sRGB;color-interpolation-filters:linearRGB;solid-color:#000000;solid-opacity:1;vector-effect:none;fill:#00d400;fill-opacity:1;fill-rule:nonzero;stroke:none;stroke-width:5.29166651;stroke-linecap:butt;stroke-linejoin:miter;stroke-miterlimit:4;stroke-dasharray:none;stroke-dashoffset:0;stroke-opacity:1;color-rendering:auto;image-rendering:auto;shape-rendering:auto;text-rendering:auto;enable-background:accumulate" />
      <rect
         style="color:#000000;clip-rule:nonzero;display:inline;overflow:visible;visibility:visible;opacity:1;isolation:auto;mix-blend-mode:normal;color-interpolation:sRGB;color-interpolation-filters:linearRGB;solid-color:#000000;solid-opacity:1;vector-effect:none;fill:#00d400;fill-opacity:1;fill-rule:nonzero;stroke:none;stroke-width:5.29166651;stroke-linecap:butt;stroke-linejoin:miter;stroke-miterlimit:4;stroke-dasharray:none;stroke-dashoffset:0;stroke-opacity:1;color-rendering:auto;image-rendering:auto;shape-rendering:auto;text-rendering:auto;enable-background:accumulate"
         id="rect8577"
         width="1.1712582"
         height="7.6131783"
         x="61.953873"
         y="166.89275"
         ry="0.58562911" />
      <rect
         ry="0.58562911"
         y="166.89275"
         x="66.99028"
         height="7.6131783"
         width="1.1712582"
         id="rect8579"
         style="color:#000000;clip-rule:nonzero;display:inline;overflow:visible;visibility:visible;opacity:1;isolation:auto;mix-blend-mode:normal;color-interpolation:sRGB;color-interpolation-filters:linearRGB;solid-color:#000000;solid-opacity:1;vector-effect:none;fill:#00d400;fill-opacity:1;fill-rule:nonzero;stroke:none;stroke-width:5.29166651;stroke-linecap:butt;stroke-linejoin:miter;stroke-miterlimit:4;stroke-dasharray:none;stroke-dashoffset:0;stroke-opacity:1;color-rendering:auto;image-rendering:auto;shape-rendering:auto;text-rendering:auto;enable-background:accumulate" />
      <rect
         style="color:#000000;clip-rule:nonzero;display:inline;overflow:visible;visibility:visible;opacity:1;isolation:auto;mix-blend-mode:normal;color-interpolation:sRGB;color-interpolation-filters:linearRGB;solid-color:#000000;solid-opacity:1;vector-effect:none;fill:#00d400;fill-opacity:1;fill-rule:nonzero;stroke:none;stroke-width:5.29166651;stroke-linecap:butt;stroke-linejoin:miter;stroke-miterlimit:4;stroke-dasharray:none;stroke-dashoffset:0;stroke-opacity:1;color-rendering:auto;image-rendering:auto;shape-rendering:auto;text-rendering:auto;enable-background:accumulate"
         id="rect8593"
         width="1.1712582"
         height="7.6131783"
         x="49.36285"
         y="166.89275"
         ry="0.58562911" />
      <rect
         ry="0.58562911"
         y="166.89275"
         x="54.399258"
         height="7.6131783"
         width="1.1712582"
         id="rect8595"
         style="color:#000000;clip-rule:nonzero;display:inline;overflow:visible;visibility:visible;opacity:1;isolation:auto;mix-blend-mode:normal;color-interpolation:sRGB;color-interpolation-filters:linearRGB;solid-color:#000000;solid-opacity:1;vector-effect:none;fill:#00d400;fill-opacity:1;fill-rule:nonzero;stroke:none;stroke-width:5.29166651;stroke-linecap:butt;stroke-linejoin:miter;stroke-miterlimit:4;stroke-dasharray:none;stroke-dashoffset:0;stroke-opacity:1;color-rendering:auto;image-rendering:auto;shape-rendering:auto;text-rendering:auto;enable-background:accumulate" />
      <rect
         style="color:#000000;clip-rule:nonzero;display:inline;overflow:visible;visibility:visible;opacity:1;isolation:auto;mix-blend-mode:normal;color-interpolation:sRGB;color-interpolation-filters:linearRGB;solid-color:#000000;solid-opacity:1;vector-effect:none;fill:#00d400;fill-opacity:1;fill-rule:nonzero;stroke:none;stroke-width:5.29166651;stroke-linecap:butt;stroke-linejoin:miter;stroke-miterlimit:4;stroke-dasharray:none;stroke-dashoffset:0;stroke-opacity:1;color-rendering:auto;image-rendering:auto;shape-rendering:auto;text-rendering:auto;enable-background:accumulate"
         id="rect8597"
         width="1.1712582"
         height="7.6131783"
         x="59.435669"
         y="166.89275"
         ry="0.58562911" />
      <rect
         ry="0.58562911"
         y="166.89275"
         x="64.472076"
         height="7.6131783"
         width="1.1712582"
         id="rect8599"
         style="color:#000000;clip-rule:nonzero;display:inline;overflow:visible;visibility:visible;opacity:1;isolation:auto;mix-blend-mode:normal;color-interpolation:sRGB;color-interpolation-filters:linearRGB;solid-color:#000000;solid-opacity:1;vector-effect:none;fill:#00d400;fill-opacity:1;fill-rule:nonzero;stroke:none;stroke-width:5.29166651;stroke-linecap:butt;stroke-linejoin:miter;stroke-miterlimit:4;stroke-dasharray:none;stroke-dashoffset:0;stroke-opacity:1;color-rendering:auto;image-rendering:auto;shape-rendering:auto;text-rendering:auto;enable-background:accumulate" />
      <rect
         style="color:#000000;clip-rule:nonzero;display:inline;overflow:visible;visibility:visible;opacity:1;isolation:auto;mix-blend-mode:normal;color-interpolation:sRGB;color-interpolation-filters:linearRGB;solid-color:#000000;solid-opacity:1;vector-effect:none;fill:#00d400;fill-opacity:1;fill-rule:nonzero;stroke:none;stroke-width:5.29166651;stroke-linecap:butt;stroke-linejoin:miter;stroke-miterlimit:4;stroke-dasharray:none;stroke-dashoffset:0;stroke-opacity:1;color-rendering:auto;image-rendering:auto;shape-rendering:auto;text-rendering:auto;enable-background:accumulate"
         id="rect8601"
         width="1.1712582"
         height="7.6131783"
         x="69.508484"
         y="166.89275"
         ry="0.58562911" />
      <rect
         style="color:#000000;clip-rule:nonzero;display:inline;overflow:visible;visibility:visible;opacity:1;isolation:auto;mix-blend-mode:normal;color-interpolation:sRGB;color-interpolation-filters:linearRGB;solid-color:#000000;solid-opacity:1;vector-effect:none;fill:#00d400;fill-opacity:1;fill-rule:nonzero;stroke:none;stroke-width:5.29166651;stroke-linecap:butt;stroke-linejoin:miter;stroke-miterlimit:4;stroke-dasharray:none;stroke-dashoffset:0;stroke-opacity:1;color-rendering:auto;image-rendering:auto;shape-rendering:auto;text-rendering:auto;enable-background:accumulate"
         id="rect8603"
         width="1.1712582"
         height="7.6131783"
         x="44.326443"
         y="166.89275"
         ry="0.58562911" />
    </g>
    <path
       style="fill:#008000;fill-rule:evenodd;stroke:#000000;stroke-width:0.97775716;stroke-linecap:butt;stroke-linejoin:miter;stroke-miterlimit:4;stroke-dasharray:none;stroke-opacity:1"
       d="m 71.049109,381.40767 75.586221,-22.51687 13.6409,56.59831 -75.586224,22.51688 z"
       id="path8623"
       inkscape:connector-curvature="0" />
    <path
       style="color:#000000;clip-rule:nonzero;display:inline;overflow:visible;visibility:visible;opacity:1;isolation:auto;mix-blend-mode:normal;color-interpolation:sRGB;color-interpolation-filters:linearRGB;solid-color:#000000;solid-opacity:1;vector-effect:none;fill:#00d400;fill-opacity:1;fill-rule:nonzero;stroke:none;stroke-width:11.85140896;stroke-linecap:butt;stroke-linejoin:miter;stroke-miterlimit:4;stroke-dasharray:none;stroke-dashoffset:0;stroke-opacity:1;color-rendering:auto;image-rendering:auto;shape-rendering:auto;text-rendering:auto;enable-background:accumulate"
       d="m 100.04872,378.04104 2.46007,5.56785 5.03335,2.72208 -2.46054,-5.56815 z m 19.85826,-5.88671 -3.12848,5.1411 0.386,6.18312 3.12839,-5.14151 z m -9.47233,4.54645 -0.73676,11.80555 5.97369,9.81682 0.73702,-11.80611 z m -12.286665,10.43018 7.024795,8.92451 10.49853,2.26818 -7.02479,-8.92451 z m 27.641535,-8.19395 -8.0669,7.77164 -2.0502,11.61467 8.06689,-7.77164 z m -31.37603,15.0674 4.647156,3.46149 5.588574,-0.42692 -4.64706,-3.46111 z m 38.04409,-11.27765 -5.03306,2.72213 -2.46022,5.56796 5.03316,-2.72174 z m -27.45761,14.78231 -8.873408,6.60879 10.671438,0.81498 8.87304,-6.60867 z m 19.54593,-5.79413 -8.87302,6.60868 10.67106,0.8151 8.87343,-6.6088 z m -8.87429,6.60996 -8.0669,7.77162 -2.0503,11.61428 8.0669,-7.77162 z m 0.001,-3.3e-4 7.0247,8.92412 10.49853,2.26815 -7.0247,-8.92412 z m -6.4e-4,6e-4 -0.73675,11.8056 5.97358,9.81636 0.73713,-11.80566 z m -8.95248,7.26198 -5.0328,2.72163 -2.460231,5.56795 5.032801,-2.72162 z m 20.38984,-5.7134 4.64707,3.46108 5.58905,-0.42665 -4.64707,-3.46108 z m -13.15128,12.94782 -3.12886,5.14121 0.38602,6.18314 3.12849,-5.1411 z m 9.69723,-2.54331 2.46007,5.56786 5.03289,2.7218 -2.46008,-5.56785 z"
       id="path8625"
       inkscape:connector-curvature="0" />
    <rect
       transform="scale(-1,1)"
       ry="14.444167"
       y="337.00677"
       x="-253.22511"
       height="84.152977"
       width="28.680616"
       id="rect8679"
       style="color:#000000;clip-rule:nonzero;display:inline;overflow:visible;visibility:visible;opacity:1;isolation:auto;mix-blend-mode:normal;color-interpolation:sRGB;color-interpolation-filters:linearRGB;solid-color:#000000;solid-opacity:1;vector-effect:none;fill:#008000;fill-opacity:1;fill-rule:nonzero;stroke:#000000;stroke-width:3;stroke-linecap:butt;stroke-linejoin:miter;stroke-miterlimit:4;stroke-dasharray:none;stroke-dashoffset:0;stroke-opacity:1;color-rendering:auto;image-rendering:auto;shape-rendering:auto;text-rendering:auto;enable-background:accumulate" />
    <path
       id="path8681"
       d="m 247.15441,341.40851 c 2.06728,1.53009 3.67816,3.74472 4.57365,6.35216 -5.32835,10.98938 -25.58509,48.32724 -25.58509,48.32724 -2.5334,-4.05693 14.90596,-42.1825 21.01144,-54.6794 z"
       style="fill:#006400;fill-opacity:1;fill-rule:evenodd;stroke:none;stroke-width:0.54966551px;stroke-linecap:butt;stroke-linejoin:miter;stroke-opacity:1"
       inkscape:connector-curvature="0" />
    <path
       id="path8683"
       d="m 343.96086,347.7555 c -0.79504,1.15139 -1.28722,2.45714 -1.88595,3.61118 l -47.02671,90.11234 c -4.39641,8.42438 -14.47236,11.03122 -22.59195,5.84499 l -40.16846,-25.65687 c -8.11959,-5.18624 -11.11691,-16.1434 -6.72051,-24.56778 L 272.594,306.98702 c 0.80184,-1.1643 1.30247,-2.42889 1.88385,-3.61252 6.76169,-12.95741 29.48786,-16.76479 48.67527,-4.5093 19.18738,12.25551 27.56999,35.93324 20.80774,48.8903 z"
       style="color:#000000;clip-rule:nonzero;display:inline;overflow:visible;visibility:visible;opacity:1;isolation:auto;mix-blend-mode:normal;color-interpolation:sRGB;color-interpolation-filters:linearRGB;solid-color:#000000;solid-opacity:1;vector-effect:none;fill:#00aa00;fill-opacity:1;fill-rule:nonzero;stroke:#000000;stroke-width:3;stroke-linecap:butt;stroke-linejoin:miter;stroke-miterlimit:4;stroke-dasharray:none;stroke-dashoffset:0;stroke-opacity:1;color-rendering:auto;image-rendering:auto;shape-rendering:auto;text-rendering:auto;enable-background:accumulate"
       inkscape:connector-curvature="0" />
    <rect
       transform="matrix(-0.84275639,-0.53829515,-0.46265555,0.88653812,0,0)"
       ry="11.230307"
       y="222.83638"
       x="-460.55862"
       height="22.460613"
       width="68.342033"
       id="rect8685"
       style="color:#000000;clip-rule:nonzero;display:inline;overflow:visible;visibility:visible;opacity:1;isolation:auto;mix-blend-mode:normal;color-interpolation:sRGB;color-interpolation-filters:linearRGB;solid-color:#000000;solid-opacity:1;vector-effect:none;fill:#008000;fill-opacity:1;fill-rule:nonzero;stroke:#000000;stroke-width:1.00191498;stroke-linecap:butt;stroke-linejoin:miter;stroke-miterlimit:4;stroke-dasharray:none;stroke-dashoffset:0;stroke-opacity:1;color-rendering:auto;image-rendering:auto;shape-rendering:auto;text-rendering:auto;enable-background:accumulate" />
    <path
       id="path8711"
       d="m 335.04754,362.88299 -67.85744,-43.64083 -26.38667,50.9098 67.85743,43.64082 z"
       style="fill:#008000;fill-rule:evenodd;stroke:#000000;stroke-width:0.9799872;stroke-linecap:butt;stroke-linejoin:miter;stroke-miterlimit:4;stroke-dasharray:none;stroke-opacity:1"
       inkscape:connector-curvature="0" />
    <path
       id="path8713"
       d="m 307.58061,351.59659 -3.67883,4.67373 -5.49866,1.1881 3.67935,-4.67388 z m -17.80443,-11.37225 1.81914,5.86172 -1.81937,5.86191 -1.81896,-5.86209 z m 8.08594,7.1038 -2.05021,11.61425 -8.06676,7.77184 2.0501,-11.61487 z m 9.4279,13.59289 -8.87329,6.60897 -10.67143,-0.81522 8.87329,-6.60896 z m -24.78272,-15.82951 5.97387,9.81667 -0.73686,11.80596 -5.97387,-9.81667 z m 26.78195,23.53807 -5.29862,2.0129 -5.29827,-2.01258 5.29843,-2.01256 z m -34.1094,-21.78675 4.22473,4.07052 1.07378,6.08269 -4.22492,-4.07018 z m 23.06374,22.14071 7.02495,8.92437 -10.49848,-2.2684 -7.02462,-8.92416 z m -17.52441,-11.19339 7.0246,8.92415 -10.49813,-2.26818 -7.02497,-8.92439 z m 7.02554,8.92575 5.97387,9.81664 -0.73668,11.80561 -5.97388,-9.81664 z m -10e-4,-6.4e-4 -8.87311,6.60862 -10.67142,-0.81524 8.8731,-6.60861 z m 4.7e-4,7.7e-4 -2.05023,11.61428 -8.06654,7.77143 2.04988,-11.61446 z m 6.94853,9.57794 4.22459,4.06997 1.07379,6.08267 -4.2246,-4.06995 z m -18.35845,-11.35706 -5.29843,2.01253 -5.2988,-2.01246 5.29844,-2.01252 z m 9.67406,16.27231 1.81948,5.86194 -1.81939,5.86193 -1.81915,-5.86173 z m -8.77181,-5.2333 -3.67883,4.67373 -5.49815,1.18796 3.67884,-4.67372 z"
       style="color:#000000;clip-rule:nonzero;display:inline;overflow:visible;visibility:visible;opacity:1;isolation:auto;mix-blend-mode:normal;color-interpolation:sRGB;color-interpolation-filters:linearRGB;solid-color:#000000;solid-opacity:1;vector-effect:none;fill:#00d400;fill-opacity:1;fill-rule:nonzero;stroke:none;stroke-width:11.85140991;stroke-linecap:butt;stroke-linejoin:miter;stroke-miterlimit:4;stroke-dasharray:none;stroke-dashoffset:0;stroke-opacity:1;color-rendering:auto;image-rendering:auto;shape-rendering:auto;text-rendering:auto;enable-background:accumulate"
       inkscape:connector-curvature="0" />
    <g
       transform="matrix(-0.96219292,-0.27236885,-0.27236885,0.96219292,683.63525,82.848509)"
       id="g6435">
      <g
         transform="matrix(1.9061375,-0.57218403,0.59547285,1.8012438,109.33943,183.80121)"
         id="g8616-3"
         style="fill:#00d400">
        <rect
           style="color:#000000;clip-rule:nonzero;display:inline;overflow:visible;visibility:visible;opacity:1;isolation:auto;mix-blend-mode:normal;color-interpolation:sRGB;color-interpolation-filters:linearRGB;solid-color:#000000;solid-opacity:1;vector-effect:none;fill:#00d400;fill-opacity:1;fill-rule:nonzero;stroke:none;stroke-width:5.29166651;stroke-linecap:butt;stroke-linejoin:miter;stroke-miterlimit:4;stroke-dasharray:none;stroke-dashoffset:0;stroke-opacity:1;color-rendering:auto;image-rendering:auto;shape-rendering:auto;text-rendering:auto;enable-background:accumulate"
           id="rect8571-6"
           width="1.1712582"
           height="7.6131783"
           x="46.844646"
           y="166.89275"
           ry="0.58562911" />
        <rect
           ry="0.58562911"
           y="166.89275"
           x="51.881054"
           height="7.6131783"
           width="1.1712582"
           id="rect8573-7"
           style="color:#000000;clip-rule:nonzero;display:inline;overflow:visible;visibility:visible;opacity:1;isolation:auto;mix-blend-mode:normal;color-interpolation:sRGB;color-interpolation-filters:linearRGB;solid-color:#000000;solid-opacity:1;vector-effect:none;fill:#00d400;fill-opacity:1;fill-rule:nonzero;stroke:none;stroke-width:5.29166651;stroke-linecap:butt;stroke-linejoin:miter;stroke-miterlimit:4;stroke-dasharray:none;stroke-dashoffset:0;stroke-opacity:1;color-rendering:auto;image-rendering:auto;shape-rendering:auto;text-rendering:auto;enable-background:accumulate" />
        <rect
           style="color:#000000;clip-rule:nonzero;display:inline;overflow:visible;visibility:visible;opacity:1;isolation:auto;mix-blend-mode:normal;color-interpolation:sRGB;color-interpolation-filters:linearRGB;solid-color:#000000;solid-opacity:1;vector-effect:none;fill:#00d400;fill-opacity:1;fill-rule:nonzero;stroke:none;stroke-width:5.29166651;stroke-linecap:butt;stroke-linejoin:miter;stroke-miterlimit:4;stroke-dasharray:none;stroke-dashoffset:0;stroke-opacity:1;color-rendering:auto;image-rendering:auto;shape-rendering:auto;text-rendering:auto;enable-background:accumulate"
           id="rect8575-5"
           width="1.1712582"
           height="7.6131783"
           x="56.917465"
           y="166.89275"
           ry="0.58562911" />
        <rect
           ry="0.58562911"
           y="166.89275"
           x="61.953873"
           height="7.6131783"
           width="1.1712582"
           id="rect8577-3"
           style="color:#000000;clip-rule:nonzero;display:inline;overflow:visible;visibility:visible;opacity:1;isolation:auto;mix-blend-mode:normal;color-interpolation:sRGB;color-interpolation-filters:linearRGB;solid-color:#000000;solid-opacity:1;vector-effect:none;fill:#00d400;fill-opacity:1;fill-rule:nonzero;stroke:none;stroke-width:5.29166651;stroke-linecap:butt;stroke-linejoin:miter;stroke-miterlimit:4;stroke-dasharray:none;stroke-dashoffset:0;stroke-opacity:1;color-rendering:auto;image-rendering:auto;shape-rendering:auto;text-rendering:auto;enable-background:accumulate" />
        <rect
           style="color:#000000;clip-rule:nonzero;display:inline;overflow:visible;visibility:visible;opacity:1;isolation:auto;mix-blend-mode:normal;color-interpolation:sRGB;color-interpolation-filters:linearRGB;solid-color:#000000;solid-opacity:1;vector-effect:none;fill:#00d400;fill-opacity:1;fill-rule:nonzero;stroke:none;stroke-width:5.29166651;stroke-linecap:butt;stroke-linejoin:miter;stroke-miterlimit:4;stroke-dasharray:none;stroke-dashoffset:0;stroke-opacity:1;color-rendering:auto;image-rendering:auto;shape-rendering:auto;text-rendering:auto;enable-background:accumulate"
           id="rect8579-5"
           width="1.1712582"
           height="7.6131783"
           x="66.99028"
           y="166.89275"
           ry="0.58562911" />
        <rect
           ry="0.58562911"
           y="166.89275"
           x="49.36285"
           height="7.6131783"
           width="1.1712582"
           id="rect8593-6"
           style="color:#000000;clip-rule:nonzero;display:inline;overflow:visible;visibility:visible;opacity:1;isolation:auto;mix-blend-mode:normal;color-interpolation:sRGB;color-interpolation-filters:linearRGB;solid-color:#000000;solid-opacity:1;vector-effect:none;fill:#00d400;fill-opacity:1;fill-rule:nonzero;stroke:none;stroke-width:5.29166651;stroke-linecap:butt;stroke-linejoin:miter;stroke-miterlimit:4;stroke-dasharray:none;stroke-dashoffset:0;stroke-opacity:1;color-rendering:auto;image-rendering:auto;shape-rendering:auto;text-rendering:auto;enable-background:accumulate" />
        <rect
           style="color:#000000;clip-rule:nonzero;display:inline;overflow:visible;visibility:visible;opacity:1;isolation:auto;mix-blend-mode:normal;color-interpolation:sRGB;color-interpolation-filters:linearRGB;solid-color:#000000;solid-opacity:1;vector-effect:none;fill:#00d400;fill-opacity:1;fill-rule:nonzero;stroke:none;stroke-width:5.29166651;stroke-linecap:butt;stroke-linejoin:miter;stroke-miterlimit:4;stroke-dasharray:none;stroke-dashoffset:0;stroke-opacity:1;color-rendering:auto;image-rendering:auto;shape-rendering:auto;text-rendering:auto;enable-background:accumulate"
           id="rect8595-2"
           width="1.1712582"
           height="7.6131783"
           x="54.399258"
           y="166.89275"
           ry="0.58562911" />
        <rect
           ry="0.58562911"
           y="166.89275"
           x="59.435669"
           height="7.6131783"
           width="1.1712582"
           id="rect8597-9"
           style="color:#000000;clip-rule:nonzero;display:inline;overflow:visible;visibility:visible;opacity:1;isolation:auto;mix-blend-mode:normal;color-interpolation:sRGB;color-interpolation-filters:linearRGB;solid-color:#000000;solid-opacity:1;vector-effect:none;fill:#00d400;fill-opacity:1;fill-rule:nonzero;stroke:none;stroke-width:5.29166651;stroke-linecap:butt;stroke-linejoin:miter;stroke-miterlimit:4;stroke-dasharray:none;stroke-dashoffset:0;stroke-opacity:1;color-rendering:auto;image-rendering:auto;shape-rendering:auto;text-rendering:auto;enable-background:accumulate" />
        <rect
           style="color:#000000;clip-rule:nonzero;display:inline;overflow:visible;visibility:visible;opacity:1;isolation:auto;mix-blend-mode:normal;color-interpolation:sRGB;color-interpolation-filters:linearRGB;solid-color:#000000;solid-opacity:1;vector-effect:none;fill:#00d400;fill-opacity:1;fill-rule:nonzero;stroke:none;stroke-width:5.29166651;stroke-linecap:butt;stroke-linejoin:miter;stroke-miterlimit:4;stroke-dasharray:none;stroke-dashoffset:0;stroke-opacity:1;color-rendering:auto;image-rendering:auto;shape-rendering:auto;text-rendering:auto;enable-background:accumulate"
           id="rect8599-1"
           width="1.1712582"
           height="7.6131783"
           x="64.472076"
           y="166.89275"
           ry="0.58562911" />
        <rect
           ry="0.58562911"
           y="166.89275"
           x="69.508484"
           height="7.6131783"
           width="1.1712582"
           id="rect8601-2"
           style="color:#000000;clip-rule:nonzero;display:inline;overflow:visible;visibility:visible;opacity:1;isolation:auto;mix-blend-mode:normal;color-interpolation:sRGB;color-interpolation-filters:linearRGB;solid-color:#000000;solid-opacity:1;vector-effect:none;fill:#00d400;fill-opacity:1;fill-rule:nonzero;stroke:none;stroke-width:5.29166651;stroke-linecap:butt;stroke-linejoin:miter;stroke-miterlimit:4;stroke-dasharray:none;stroke-dashoffset:0;stroke-opacity:1;color-rendering:auto;image-rendering:auto;shape-rendering:auto;text-rendering:auto;enable-background:accumulate" />
        <rect
           ry="0.58562911"
           y="166.89275"
           x="44.326443"
           height="7.6131783"
           width="1.1712582"
           id="rect8603-7"
           style="color:#000000;clip-rule:nonzero;display:inline;overflow:visible;visibility:visible;opacity:1;isolation:auto;mix-blend-mode:normal;color-interpolation:sRGB;color-interpolation-filters:linearRGB;solid-color:#000000;solid-opacity:1;vector-effect:none;fill:#00d400;fill-opacity:1;fill-rule:nonzero;stroke:none;stroke-width:5.29166651;stroke-linecap:butt;stroke-linejoin:miter;stroke-miterlimit:4;stroke-dasharray:none;stroke-dashoffset:0;stroke-opacity:1;color-rendering:auto;image-rendering:auto;shape-rendering:auto;text-rendering:auto;enable-background:accumulate" />
      </g>
    </g>
  </g>
  <text
     xml:space="preserve"
     style="font-style:normal;font-weight:normal;font-size:40px;line-height:1.25;font-family:sans-serif;letter-spacing:0px;word-spacing:0px;fill:#000000;fill-opacity:1;stroke:none"
     x="433.65289"
     y="113.94526"
     id="text6563"><tspan
       sodipodi:role="line"
       id="tspan6561"
       x="433.65289"
       y="113.94526">varmigas niajn kapojn</tspan></text>
  <text
     xml:space="preserve"
     style="font-style:normal;font-weight:normal;font-size:40px;line-height:1.25;font-family:sans-serif;letter-spacing:0px;word-spacing:0px;fill:#000000;fill-opacity:1;stroke:none"
     x="459.71936"
     y="190.84122"
     id="text6567"><tspan
       sodipodi:role="line"
       id="tspan6565"
       x="459.71936"
       y="190.84122">(warms our heads)</tspan></text>
  <g
     id="g6607"
     transform="matrix(1.0206399,0,0,0.99997159,0.04515153,0.04426234)">
    <rect
       y="1.5"
       x="1.5000252"
       height="274.63287"
       width="882.52679"
       id="rect6571"
       style="fill:none;fill-opacity:1;stroke:#000000;stroke-width:3;stroke-miterlimit:4;stroke-dasharray:none;stroke-opacity:1" />
    <rect
       y="825.39862"
       x="1.5"
       height="274.63287"
       width="882.52679"
       id="rect6571-0"
       style="fill:none;fill-opacity:1;stroke:#000000;stroke-width:3;stroke-miterlimit:4;stroke-dasharray:none;stroke-opacity:1" />
    <rect
       y="550.76575"
       x="1.5"
       height="274.63287"
       width="882.52679"
       id="rect6571-9"
       style="fill:none;fill-opacity:1;stroke:#000000;stroke-width:3;stroke-miterlimit:4;stroke-dasharray:none;stroke-opacity:1" />
    <rect
       y="276.13287"
       x="1.5"
       height="274.63287"
       width="882.52679"
       id="rect6571-3"
       style="fill:none;fill-opacity:1;stroke:#000000;stroke-width:3;stroke-miterlimit:4;stroke-dasharray:none;stroke-opacity:1" />
    <rect
       y="1.5"
       x="1.5000252"
       height="1098.2882"
       width="397.1011"
       id="rect6600"
       style="fill:none;fill-opacity:1;stroke:#000000;stroke-width:3.0885272;stroke-miterlimit:4;stroke-dasharray:none;stroke-opacity:1" />
  </g>
  <text
     xml:space="preserve"
     style="font-style:normal;font-weight:normal;font-size:40px;line-height:1.25;font-family:sans-serif;letter-spacing:0px;word-spacing:0px;fill:#000000;fill-opacity:1;stroke:none"
     x="427.48953"
     y="382.11081"
     id="text6611"><tspan
       sodipodi:role="line"
       id="tspan6609"
       x="427.48953"
       y="382.11081">varmigas niajn manojn</tspan></text>
  <text
     xml:space="preserve"
     style="font-style:normal;font-weight:normal;font-size:40px;line-height:1.25;font-family:sans-serif;letter-spacing:0px;word-spacing:0px;fill:#000000;fill-opacity:1;stroke:none"
     x="463.98254"
     y="466.82675"
     id="text6615"><tspan
       sodipodi:role="line"
       id="tspan6613"
       x="463.98254"
       y="466.82675">(warms our hands)</tspan></text>
  <text
     xml:space="preserve"
     style="font-style:normal;font-weight:normal;font-size:40px;line-height:1.25;font-family:sans-serif;letter-spacing:0px;word-spacing:0px;fill:#000000;fill-opacity:1;stroke:none"
     x="480.92572"
     y="739.22101"
     id="text6619"><tspan
       sodipodi:role="line"
       id="tspan6617"
       x="480.92572"
       y="739.22101">(warms our feet)</tspan></text>
  <text
     xml:space="preserve"
     style="font-style:normal;font-weight:normal;font-size:40px;line-height:1.25;font-family:sans-serif;letter-spacing:0px;word-spacing:0px;fill:#000000;fill-opacity:1;stroke:none"
     x="430.09619"
     y="647.9884"
     id="text6623"><tspan
       sodipodi:role="line"
       id="tspan6621"
       x="430.09619"
       y="647.9884">varmigas niajn piedojn</tspan></text>
  <text
     xml:space="preserve"
     style="font-style:normal;font-weight:normal;font-size:40px;line-height:1.25;font-family:sans-serif;letter-spacing:0px;word-spacing:0px;fill:#000000;fill-opacity:1;stroke:none"
     x="438.19995"
     y="927.50793"
     id="text6623-6"><tspan
       sodipodi:role="line"
       id="tspan6621-0"
       x="438.19995"
       y="927.50793">varmigas niajn korojn</tspan></text>
  <text
     xml:space="preserve"
     style="font-style:normal;font-weight:normal;font-size:40px;line-height:1.25;font-family:sans-serif;letter-spacing:0px;word-spacing:0px;fill:#000000;fill-opacity:1;stroke:none"
     x="452.25266"
     y="1016.8286"
     id="text6645"><tspan
       sodipodi:role="line"
       id="tspan6643"
       x="452.25266"
       y="1016.8286">(warms our hearts)</tspan></text>
</svg>
